<mxfile host="Electron" modified="2023-05-17T10:33:13.252Z" agent="Mozilla/5.0 (Macintosh; Intel Mac OS X 10_15_7) AppleWebKit/537.36 (KHTML, like Gecko) draw.io/21.2.1 Chrome/112.0.5615.87 Electron/24.1.2 Safari/537.36" etag="7wuA2NrkV6A0lf6yL60x" version="21.2.1" type="device">
  <diagram name="Página-1" id="KPAGvWsAuxr3amBIZANN">
    <mxGraphModel dx="1194" dy="824" grid="1" gridSize="10" guides="1" tooltips="1" connect="1" arrows="1" fold="1" page="1" pageScale="1" pageWidth="827" pageHeight="1169" math="0" shadow="0">
      <root>
        <mxCell id="0" />
        <mxCell id="1" parent="0" />
        <mxCell id="mOBoFXdszptBoIx4UrWW-8" value="" style="rounded=0;whiteSpace=wrap;html=1;fillColor=none;" parent="1" vertex="1">
          <mxGeometry x="297" y="52" width="180" height="35" as="geometry" />
        </mxCell>
        <mxCell id="mOBoFXdszptBoIx4UrWW-1" value="A&lt;sup&gt;4&lt;/sup&gt;" style="ellipse;whiteSpace=wrap;html=1;aspect=fixed;" parent="1" vertex="1">
          <mxGeometry x="250" y="140" width="30" height="30" as="geometry" />
        </mxCell>
        <mxCell id="mOBoFXdszptBoIx4UrWW-3" value="A" style="ellipse;whiteSpace=wrap;html=1;aspect=fixed;" parent="1" vertex="1">
          <mxGeometry x="317" y="59.5" width="20" height="20" as="geometry" />
        </mxCell>
        <mxCell id="mOBoFXdszptBoIx4UrWW-4" value="" style="endArrow=classic;html=1;rounded=0;endSize=4;endFill=1;" parent="1" edge="1">
          <mxGeometry width="50" height="50" relative="1" as="geometry">
            <mxPoint x="337" y="69.89" as="sourcePoint" />
            <mxPoint x="377" y="69.89" as="targetPoint" />
          </mxGeometry>
        </mxCell>
        <mxCell id="mOBoFXdszptBoIx4UrWW-5" value="g" style="text;html=1;strokeColor=none;fillColor=none;align=center;verticalAlign=middle;whiteSpace=wrap;rounded=0;" parent="1" vertex="1">
          <mxGeometry x="343" y="50" width="20" height="20" as="geometry" />
        </mxCell>
        <mxCell id="mOBoFXdszptBoIx4UrWW-6" value="B&lt;sup&gt;h&lt;/sup&gt;" style="ellipse;whiteSpace=wrap;html=1;aspect=fixed;" parent="1" vertex="1">
          <mxGeometry x="377" y="59.5" width="20" height="20" as="geometry" />
        </mxCell>
        <mxCell id="mOBoFXdszptBoIx4UrWW-7" value="f(B)=g+h" style="text;html=1;strokeColor=none;fillColor=none;align=center;verticalAlign=middle;whiteSpace=wrap;rounded=0;" parent="1" vertex="1">
          <mxGeometry x="410" y="55" width="60" height="30" as="geometry" />
        </mxCell>
        <mxCell id="mOBoFXdszptBoIx4UrWW-9" value="&lt;font style=&quot;font-size: 12px;&quot;&gt;B&lt;sup&gt;3&lt;/sup&gt;&lt;/font&gt;" style="ellipse;whiteSpace=wrap;html=1;aspect=fixed;" parent="1" vertex="1">
          <mxGeometry x="190" y="190" width="30" height="30" as="geometry" />
        </mxCell>
        <mxCell id="mOBoFXdszptBoIx4UrWW-10" value="C&lt;sup&gt;4&lt;/sup&gt;" style="ellipse;whiteSpace=wrap;html=1;aspect=fixed;" parent="1" vertex="1">
          <mxGeometry x="250" y="190" width="30" height="30" as="geometry" />
        </mxCell>
        <mxCell id="mOBoFXdszptBoIx4UrWW-11" value="D&lt;sup&gt;&lt;font color=&quot;#009900&quot;&gt;5&lt;/font&gt;&lt;/sup&gt;" style="ellipse;whiteSpace=wrap;html=1;aspect=fixed;" parent="1" vertex="1">
          <mxGeometry x="310" y="190" width="30" height="30" as="geometry" />
        </mxCell>
        <mxCell id="mOBoFXdszptBoIx4UrWW-12" value="E&lt;sup&gt;2&lt;/sup&gt;" style="ellipse;whiteSpace=wrap;html=1;aspect=fixed;" parent="1" vertex="1">
          <mxGeometry x="190" y="240" width="30" height="30" as="geometry" />
        </mxCell>
        <mxCell id="mOBoFXdszptBoIx4UrWW-13" value="F&lt;sup&gt;1&lt;/sup&gt;" style="ellipse;whiteSpace=wrap;html=1;aspect=fixed;" parent="1" vertex="1">
          <mxGeometry x="190" y="290" width="30" height="30" as="geometry" />
        </mxCell>
        <mxCell id="mOBoFXdszptBoIx4UrWW-16" value="G&lt;sup&gt;0&lt;/sup&gt;" style="ellipse;whiteSpace=wrap;html=1;aspect=fixed;" parent="1" vertex="1">
          <mxGeometry x="250" y="330" width="30" height="30" as="geometry" />
        </mxCell>
        <mxCell id="mOBoFXdszptBoIx4UrWW-18" value="" style="endArrow=classic;html=1;rounded=0;endSize=4;entryX=0.5;entryY=0;entryDx=0;entryDy=0;exitX=0;exitY=1;exitDx=0;exitDy=0;strokeColor=#009900;" parent="1" source="mOBoFXdszptBoIx4UrWW-1" target="mOBoFXdszptBoIx4UrWW-9" edge="1">
          <mxGeometry width="50" height="50" relative="1" as="geometry">
            <mxPoint x="250" y="180" as="sourcePoint" />
            <mxPoint x="300" y="130" as="targetPoint" />
          </mxGeometry>
        </mxCell>
        <mxCell id="mOBoFXdszptBoIx4UrWW-20" value="" style="endArrow=classic;html=1;rounded=0;endSize=4;entryX=0.5;entryY=0;entryDx=0;entryDy=0;exitX=0.5;exitY=1;exitDx=0;exitDy=0;" parent="1" source="mOBoFXdszptBoIx4UrWW-1" target="mOBoFXdszptBoIx4UrWW-10" edge="1">
          <mxGeometry width="50" height="50" relative="1" as="geometry">
            <mxPoint x="264" y="176" as="sourcePoint" />
            <mxPoint x="225" y="200" as="targetPoint" />
          </mxGeometry>
        </mxCell>
        <mxCell id="mOBoFXdszptBoIx4UrWW-21" value="" style="endArrow=classic;html=1;rounded=0;endSize=4;entryX=0.5;entryY=0;entryDx=0;entryDy=0;exitX=1;exitY=1;exitDx=0;exitDy=0;" parent="1" source="mOBoFXdszptBoIx4UrWW-1" target="mOBoFXdszptBoIx4UrWW-11" edge="1">
          <mxGeometry width="50" height="50" relative="1" as="geometry">
            <mxPoint x="275" y="180" as="sourcePoint" />
            <mxPoint x="275" y="200" as="targetPoint" />
          </mxGeometry>
        </mxCell>
        <mxCell id="mOBoFXdszptBoIx4UrWW-22" value="" style="endArrow=classic;html=1;rounded=0;endSize=4;entryX=0.5;entryY=0;entryDx=0;entryDy=0;exitX=0.5;exitY=1;exitDx=0;exitDy=0;strokeColor=#009900;" parent="1" source="mOBoFXdszptBoIx4UrWW-9" target="mOBoFXdszptBoIx4UrWW-12" edge="1">
          <mxGeometry width="50" height="50" relative="1" as="geometry">
            <mxPoint x="264" y="176" as="sourcePoint" />
            <mxPoint x="225" y="200" as="targetPoint" />
          </mxGeometry>
        </mxCell>
        <mxCell id="mOBoFXdszptBoIx4UrWW-23" value="" style="endArrow=classic;html=1;rounded=0;endSize=4;entryX=0.5;entryY=0;entryDx=0;entryDy=0;exitX=0.5;exitY=1;exitDx=0;exitDy=0;strokeColor=#009900;" parent="1" edge="1">
          <mxGeometry width="50" height="50" relative="1" as="geometry">
            <mxPoint x="204.79999999999998" y="270" as="sourcePoint" />
            <mxPoint x="204.79999999999998" y="290" as="targetPoint" />
          </mxGeometry>
        </mxCell>
        <mxCell id="mOBoFXdszptBoIx4UrWW-24" value="" style="endArrow=classic;html=1;rounded=0;endSize=4;entryX=0;entryY=0;entryDx=0;entryDy=0;exitX=1;exitY=1;exitDx=0;exitDy=0;strokeColor=#009900;" parent="1" source="mOBoFXdszptBoIx4UrWW-13" target="mOBoFXdszptBoIx4UrWW-16" edge="1">
          <mxGeometry width="50" height="50" relative="1" as="geometry">
            <mxPoint x="235" y="240" as="sourcePoint" />
            <mxPoint x="235" y="260" as="targetPoint" />
          </mxGeometry>
        </mxCell>
        <mxCell id="mOBoFXdszptBoIx4UrWW-25" value="" style="endArrow=classic;html=1;rounded=0;endSize=4;entryX=0.5;entryY=0;entryDx=0;entryDy=0;exitX=0.5;exitY=1;exitDx=0;exitDy=0;" parent="1" source="mOBoFXdszptBoIx4UrWW-10" target="mOBoFXdszptBoIx4UrWW-16" edge="1">
          <mxGeometry width="50" height="50" relative="1" as="geometry">
            <mxPoint x="224.95" y="280" as="sourcePoint" />
            <mxPoint x="224.95" y="300" as="targetPoint" />
          </mxGeometry>
        </mxCell>
        <mxCell id="mOBoFXdszptBoIx4UrWW-26" value="" style="endArrow=classic;html=1;rounded=0;endSize=4;entryX=1;entryY=0;entryDx=0;entryDy=0;exitX=0.5;exitY=1;exitDx=0;exitDy=0;" parent="1" source="mOBoFXdszptBoIx4UrWW-11" target="mOBoFXdszptBoIx4UrWW-16" edge="1">
          <mxGeometry width="50" height="50" relative="1" as="geometry">
            <mxPoint x="275" y="230" as="sourcePoint" />
            <mxPoint x="275" y="340" as="targetPoint" />
          </mxGeometry>
        </mxCell>
        <mxCell id="mOBoFXdszptBoIx4UrWW-27" value="Subestima coste real&lt;br&gt;(camino óptimo)" style="text;html=1;strokeColor=none;fillColor=none;align=center;verticalAlign=middle;whiteSpace=wrap;rounded=0;" parent="1" vertex="1">
          <mxGeometry x="192.5" y="104" width="145" height="30" as="geometry" />
        </mxCell>
        <mxCell id="mOBoFXdszptBoIx4UrWW-44" value="1" style="text;html=1;strokeColor=none;fillColor=none;align=center;verticalAlign=middle;whiteSpace=wrap;rounded=0;" parent="1" vertex="1">
          <mxGeometry x="225" y="165" width="10" height="10" as="geometry" />
        </mxCell>
        <mxCell id="mOBoFXdszptBoIx4UrWW-45" value="1" style="text;html=1;strokeColor=none;fillColor=none;align=center;verticalAlign=middle;whiteSpace=wrap;rounded=0;" parent="1" vertex="1">
          <mxGeometry x="297" y="165" width="10" height="10" as="geometry" />
        </mxCell>
        <mxCell id="mOBoFXdszptBoIx4UrWW-46" value="1" style="text;html=1;strokeColor=none;fillColor=none;align=center;verticalAlign=middle;whiteSpace=wrap;rounded=0;" parent="1" vertex="1">
          <mxGeometry x="265" y="172" width="10" height="10" as="geometry" />
        </mxCell>
        <mxCell id="mOBoFXdszptBoIx4UrWW-47" value="1" style="text;html=1;strokeColor=none;fillColor=none;align=center;verticalAlign=middle;whiteSpace=wrap;rounded=0;" parent="1" vertex="1">
          <mxGeometry x="194.5" y="222" width="8" height="8" as="geometry" />
        </mxCell>
        <mxCell id="mOBoFXdszptBoIx4UrWW-48" value="1" style="text;html=1;strokeColor=none;fillColor=none;align=center;verticalAlign=middle;whiteSpace=wrap;rounded=0;" parent="1" vertex="1">
          <mxGeometry x="194.5" y="272" width="10" height="10" as="geometry" />
        </mxCell>
        <mxCell id="mOBoFXdszptBoIx4UrWW-49" value="1" style="text;html=1;strokeColor=none;fillColor=none;align=center;verticalAlign=middle;whiteSpace=wrap;rounded=0;" parent="1" vertex="1">
          <mxGeometry x="220" y="324" width="10" height="10" as="geometry" />
        </mxCell>
        <mxCell id="mOBoFXdszptBoIx4UrWW-50" value="4" style="text;html=1;strokeColor=none;fillColor=none;align=center;verticalAlign=middle;whiteSpace=wrap;rounded=0;" parent="1" vertex="1">
          <mxGeometry x="253" y="232" width="10" height="10" as="geometry" />
        </mxCell>
        <mxCell id="mOBoFXdszptBoIx4UrWW-51" value="7" style="text;html=1;strokeColor=none;fillColor=none;align=center;verticalAlign=middle;whiteSpace=wrap;rounded=0;" parent="1" vertex="1">
          <mxGeometry x="305" y="232" width="10" height="10" as="geometry" />
        </mxCell>
        <mxCell id="mOBoFXdszptBoIx4UrWW-52" value="&lt;font style=&quot;font-size: 10px;&quot;&gt;f=1+3&lt;/font&gt;" style="text;html=1;strokeColor=none;fillColor=none;align=center;verticalAlign=middle;whiteSpace=wrap;rounded=0;" parent="1" vertex="1">
          <mxGeometry x="150" y="190" width="40" height="30" as="geometry" />
        </mxCell>
        <mxCell id="mOBoFXdszptBoIx4UrWW-54" value="&lt;font style=&quot;font-size: 10px;&quot;&gt;f=1+4&lt;/font&gt;" style="text;html=1;strokeColor=none;fillColor=none;align=center;verticalAlign=middle;whiteSpace=wrap;rounded=0;" parent="1" vertex="1">
          <mxGeometry x="215" y="190" width="40" height="30" as="geometry" />
        </mxCell>
        <mxCell id="mOBoFXdszptBoIx4UrWW-55" value="&lt;font style=&quot;font-size: 10px;&quot;&gt;f=1+5&lt;/font&gt;" style="text;html=1;strokeColor=none;fillColor=none;align=center;verticalAlign=middle;whiteSpace=wrap;rounded=0;" parent="1" vertex="1">
          <mxGeometry x="276" y="190" width="40" height="30" as="geometry" />
        </mxCell>
        <mxCell id="mOBoFXdszptBoIx4UrWW-57" value="&lt;font style=&quot;font-size: 10px;&quot;&gt;f=2+2&lt;/font&gt;" style="text;html=1;strokeColor=none;fillColor=none;align=center;verticalAlign=middle;whiteSpace=wrap;rounded=0;" parent="1" vertex="1">
          <mxGeometry x="150" y="240" width="40" height="30" as="geometry" />
        </mxCell>
        <mxCell id="mOBoFXdszptBoIx4UrWW-58" value="&lt;font style=&quot;font-size: 10px;&quot;&gt;f=3+1&lt;/font&gt;" style="text;html=1;strokeColor=none;fillColor=none;align=center;verticalAlign=middle;whiteSpace=wrap;rounded=0;" parent="1" vertex="1">
          <mxGeometry x="150" y="290" width="40" height="30" as="geometry" />
        </mxCell>
        <mxCell id="mOBoFXdszptBoIx4UrWW-59" value="&lt;font color=&quot;#009900&quot; style=&quot;font-size: 10px;&quot;&gt;f=4+0&lt;/font&gt;" style="text;html=1;strokeColor=none;fillColor=none;align=center;verticalAlign=middle;whiteSpace=wrap;rounded=0;" parent="1" vertex="1">
          <mxGeometry x="215" y="330" width="40" height="30" as="geometry" />
        </mxCell>
        <mxCell id="mOBoFXdszptBoIx4UrWW-60" value="A&lt;sup&gt;4&lt;/sup&gt;" style="ellipse;whiteSpace=wrap;html=1;aspect=fixed;" parent="1" vertex="1">
          <mxGeometry x="480" y="140" width="30" height="30" as="geometry" />
        </mxCell>
        <mxCell id="mOBoFXdszptBoIx4UrWW-61" value="&lt;font style=&quot;font-size: 12px;&quot;&gt;&lt;font style=&quot;font-size: 12px;&quot;&gt;B&lt;/font&gt;&lt;font color=&quot;#ff3333&quot; style=&quot;font-size: 12px;&quot;&gt;&lt;sup&gt;8&lt;/sup&gt;&lt;/font&gt;&lt;/font&gt;" style="ellipse;whiteSpace=wrap;html=1;aspect=fixed;" parent="1" vertex="1">
          <mxGeometry x="420" y="190" width="30" height="30" as="geometry" />
        </mxCell>
        <mxCell id="mOBoFXdszptBoIx4UrWW-62" value="C&lt;sup&gt;4&lt;/sup&gt;" style="ellipse;whiteSpace=wrap;html=1;aspect=fixed;" parent="1" vertex="1">
          <mxGeometry x="480" y="190" width="30" height="30" as="geometry" />
        </mxCell>
        <mxCell id="mOBoFXdszptBoIx4UrWW-63" value="D&lt;sup&gt;5&lt;/sup&gt;" style="ellipse;whiteSpace=wrap;html=1;aspect=fixed;" parent="1" vertex="1">
          <mxGeometry x="540" y="190" width="30" height="30" as="geometry" />
        </mxCell>
        <mxCell id="mOBoFXdszptBoIx4UrWW-64" value="E&lt;sup&gt;2&lt;/sup&gt;" style="ellipse;whiteSpace=wrap;html=1;aspect=fixed;" parent="1" vertex="1">
          <mxGeometry x="420" y="240" width="30" height="30" as="geometry" />
        </mxCell>
        <mxCell id="mOBoFXdszptBoIx4UrWW-65" value="F&lt;sup&gt;1&lt;/sup&gt;" style="ellipse;whiteSpace=wrap;html=1;aspect=fixed;" parent="1" vertex="1">
          <mxGeometry x="420" y="290" width="30" height="30" as="geometry" />
        </mxCell>
        <mxCell id="mOBoFXdszptBoIx4UrWW-66" value="G&lt;sup&gt;0&lt;/sup&gt;" style="ellipse;whiteSpace=wrap;html=1;aspect=fixed;" parent="1" vertex="1">
          <mxGeometry x="480" y="330" width="30" height="30" as="geometry" />
        </mxCell>
        <mxCell id="mOBoFXdszptBoIx4UrWW-67" value="" style="endArrow=classic;html=1;rounded=0;endSize=4;entryX=0.5;entryY=0;entryDx=0;entryDy=0;exitX=0;exitY=1;exitDx=0;exitDy=0;strokeColor=#000000;" parent="1" source="mOBoFXdszptBoIx4UrWW-60" target="mOBoFXdszptBoIx4UrWW-61" edge="1">
          <mxGeometry width="50" height="50" relative="1" as="geometry">
            <mxPoint x="480" y="180" as="sourcePoint" />
            <mxPoint x="530" y="130" as="targetPoint" />
          </mxGeometry>
        </mxCell>
        <mxCell id="mOBoFXdszptBoIx4UrWW-68" value="" style="endArrow=classic;html=1;rounded=0;endSize=4;exitX=0.5;exitY=1;exitDx=0;exitDy=0;strokeColor=#FF3333;" parent="1" source="mOBoFXdszptBoIx4UrWW-60" edge="1">
          <mxGeometry width="50" height="50" relative="1" as="geometry">
            <mxPoint x="494" y="176" as="sourcePoint" />
            <mxPoint x="495" y="190" as="targetPoint" />
          </mxGeometry>
        </mxCell>
        <mxCell id="mOBoFXdszptBoIx4UrWW-69" value="" style="endArrow=classic;html=1;rounded=0;endSize=4;entryX=0.5;entryY=0;entryDx=0;entryDy=0;exitX=1;exitY=1;exitDx=0;exitDy=0;" parent="1" source="mOBoFXdszptBoIx4UrWW-60" target="mOBoFXdszptBoIx4UrWW-63" edge="1">
          <mxGeometry width="50" height="50" relative="1" as="geometry">
            <mxPoint x="505" y="180" as="sourcePoint" />
            <mxPoint x="505" y="200" as="targetPoint" />
          </mxGeometry>
        </mxCell>
        <mxCell id="mOBoFXdszptBoIx4UrWW-70" value="" style="endArrow=classic;html=1;rounded=0;endSize=4;entryX=0.5;entryY=0;entryDx=0;entryDy=0;exitX=0.5;exitY=1;exitDx=0;exitDy=0;strokeColor=#000000;" parent="1" source="mOBoFXdszptBoIx4UrWW-61" target="mOBoFXdszptBoIx4UrWW-64" edge="1">
          <mxGeometry width="50" height="50" relative="1" as="geometry">
            <mxPoint x="494" y="176" as="sourcePoint" />
            <mxPoint x="455" y="200" as="targetPoint" />
          </mxGeometry>
        </mxCell>
        <mxCell id="mOBoFXdszptBoIx4UrWW-71" value="" style="endArrow=classic;html=1;rounded=0;endSize=4;entryX=0.5;entryY=0;entryDx=0;entryDy=0;exitX=0.5;exitY=1;exitDx=0;exitDy=0;strokeColor=#000000;" parent="1" edge="1">
          <mxGeometry width="50" height="50" relative="1" as="geometry">
            <mxPoint x="434.79999999999995" y="270" as="sourcePoint" />
            <mxPoint x="434.79999999999995" y="290" as="targetPoint" />
          </mxGeometry>
        </mxCell>
        <mxCell id="mOBoFXdszptBoIx4UrWW-72" value="" style="endArrow=classic;html=1;rounded=0;endSize=4;entryX=0;entryY=0;entryDx=0;entryDy=0;exitX=1;exitY=1;exitDx=0;exitDy=0;strokeColor=#000000;" parent="1" source="mOBoFXdszptBoIx4UrWW-65" target="mOBoFXdszptBoIx4UrWW-66" edge="1">
          <mxGeometry width="50" height="50" relative="1" as="geometry">
            <mxPoint x="465" y="240" as="sourcePoint" />
            <mxPoint x="465" y="260" as="targetPoint" />
          </mxGeometry>
        </mxCell>
        <mxCell id="mOBoFXdszptBoIx4UrWW-73" value="" style="endArrow=classic;html=1;rounded=0;endSize=4;entryX=0.5;entryY=0;entryDx=0;entryDy=0;exitX=0.5;exitY=1;exitDx=0;exitDy=0;strokeColor=#FF3333;" parent="1" source="mOBoFXdszptBoIx4UrWW-62" target="mOBoFXdszptBoIx4UrWW-66" edge="1">
          <mxGeometry width="50" height="50" relative="1" as="geometry">
            <mxPoint x="454.95" y="280" as="sourcePoint" />
            <mxPoint x="454.95" y="300" as="targetPoint" />
          </mxGeometry>
        </mxCell>
        <mxCell id="mOBoFXdszptBoIx4UrWW-74" value="" style="endArrow=classic;html=1;rounded=0;endSize=4;entryX=1;entryY=0;entryDx=0;entryDy=0;exitX=0.5;exitY=1;exitDx=0;exitDy=0;" parent="1" source="mOBoFXdszptBoIx4UrWW-63" target="mOBoFXdszptBoIx4UrWW-66" edge="1">
          <mxGeometry width="50" height="50" relative="1" as="geometry">
            <mxPoint x="505" y="230" as="sourcePoint" />
            <mxPoint x="505" y="340" as="targetPoint" />
          </mxGeometry>
        </mxCell>
        <mxCell id="mOBoFXdszptBoIx4UrWW-75" value="Sobreestima coste real&lt;br&gt;(camino subóptimo)" style="text;html=1;strokeColor=none;fillColor=none;align=center;verticalAlign=middle;whiteSpace=wrap;rounded=0;" parent="1" vertex="1">
          <mxGeometry x="422.5" y="104" width="145" height="30" as="geometry" />
        </mxCell>
        <mxCell id="mOBoFXdszptBoIx4UrWW-76" value="1" style="text;html=1;strokeColor=none;fillColor=none;align=center;verticalAlign=middle;whiteSpace=wrap;rounded=0;" parent="1" vertex="1">
          <mxGeometry x="455" y="165" width="10" height="10" as="geometry" />
        </mxCell>
        <mxCell id="mOBoFXdszptBoIx4UrWW-77" value="1" style="text;html=1;strokeColor=none;fillColor=none;align=center;verticalAlign=middle;whiteSpace=wrap;rounded=0;" parent="1" vertex="1">
          <mxGeometry x="527" y="165" width="10" height="10" as="geometry" />
        </mxCell>
        <mxCell id="mOBoFXdszptBoIx4UrWW-78" value="1" style="text;html=1;strokeColor=none;fillColor=none;align=center;verticalAlign=middle;whiteSpace=wrap;rounded=0;" parent="1" vertex="1">
          <mxGeometry x="495" y="172" width="10" height="10" as="geometry" />
        </mxCell>
        <mxCell id="mOBoFXdszptBoIx4UrWW-79" value="1" style="text;html=1;strokeColor=none;fillColor=none;align=center;verticalAlign=middle;whiteSpace=wrap;rounded=0;" parent="1" vertex="1">
          <mxGeometry x="424.5" y="222" width="10" height="10" as="geometry" />
        </mxCell>
        <mxCell id="mOBoFXdszptBoIx4UrWW-80" value="1" style="text;html=1;strokeColor=none;fillColor=none;align=center;verticalAlign=middle;whiteSpace=wrap;rounded=0;" parent="1" vertex="1">
          <mxGeometry x="424.5" y="272" width="10" height="10" as="geometry" />
        </mxCell>
        <mxCell id="mOBoFXdszptBoIx4UrWW-81" value="1" style="text;html=1;strokeColor=none;fillColor=none;align=center;verticalAlign=middle;whiteSpace=wrap;rounded=0;" parent="1" vertex="1">
          <mxGeometry x="450" y="324" width="10" height="10" as="geometry" />
        </mxCell>
        <mxCell id="mOBoFXdszptBoIx4UrWW-82" value="4" style="text;html=1;strokeColor=none;fillColor=none;align=center;verticalAlign=middle;whiteSpace=wrap;rounded=0;" parent="1" vertex="1">
          <mxGeometry x="483" y="230" width="10" height="10" as="geometry" />
        </mxCell>
        <mxCell id="mOBoFXdszptBoIx4UrWW-83" value="5" style="text;html=1;strokeColor=none;fillColor=none;align=center;verticalAlign=middle;whiteSpace=wrap;rounded=0;" parent="1" vertex="1">
          <mxGeometry x="533" y="230" width="10" height="10" as="geometry" />
        </mxCell>
        <mxCell id="mOBoFXdszptBoIx4UrWW-84" value="&lt;font color=&quot;#ff3333&quot; style=&quot;font-size: 10px;&quot;&gt;f=1+8&lt;/font&gt;" style="text;html=1;strokeColor=none;fillColor=none;align=center;verticalAlign=middle;whiteSpace=wrap;rounded=0;" parent="1" vertex="1">
          <mxGeometry x="380" y="190" width="40" height="30" as="geometry" />
        </mxCell>
        <mxCell id="mOBoFXdszptBoIx4UrWW-85" value="&lt;font style=&quot;font-size: 10px;&quot;&gt;f=1+4&lt;/font&gt;" style="text;html=1;strokeColor=none;fillColor=none;align=center;verticalAlign=middle;whiteSpace=wrap;rounded=0;" parent="1" vertex="1">
          <mxGeometry x="445" y="190" width="40" height="30" as="geometry" />
        </mxCell>
        <mxCell id="mOBoFXdszptBoIx4UrWW-86" value="&lt;font style=&quot;font-size: 10px;&quot;&gt;f=1+5&lt;/font&gt;" style="text;html=1;strokeColor=none;fillColor=none;align=center;verticalAlign=middle;whiteSpace=wrap;rounded=0;" parent="1" vertex="1">
          <mxGeometry x="506" y="190" width="40" height="30" as="geometry" />
        </mxCell>
        <mxCell id="mOBoFXdszptBoIx4UrWW-89" value="&lt;font color=&quot;#ff3333&quot; style=&quot;font-size: 10px;&quot;&gt;f=5+0&lt;/font&gt;" style="text;html=1;strokeColor=none;fillColor=none;align=center;verticalAlign=middle;whiteSpace=wrap;rounded=0;" parent="1" vertex="1">
          <mxGeometry x="445" y="330" width="40" height="30" as="geometry" />
        </mxCell>
        <mxCell id="mOBoFXdszptBoIx4UrWW-90" value="&lt;p style=&quot;line-height: 60%;&quot;&gt;&lt;font color=&quot;#ff3333&quot; style=&quot;font-size: 9px;&quot;&gt;camino subómptimo&lt;/font&gt;&lt;/p&gt;" style="text;html=1;strokeColor=none;fillColor=none;align=center;verticalAlign=middle;whiteSpace=wrap;rounded=0;rotation=-90;" parent="1" vertex="1">
          <mxGeometry x="451" y="274" width="60" height="30" as="geometry" />
        </mxCell>
      </root>
    </mxGraphModel>
  </diagram>
</mxfile>
