<mxfile host="Electron" modified="2023-05-17T15:57:47.037Z" agent="Mozilla/5.0 (Macintosh; Intel Mac OS X 10_15_7) AppleWebKit/537.36 (KHTML, like Gecko) draw.io/21.2.1 Chrome/112.0.5615.87 Electron/24.1.2 Safari/537.36" etag="qmpD-Ozsr4ig9tBz_w4F" version="21.2.1" type="device">
  <diagram name="Página-1" id="KPAGvWsAuxr3amBIZANN">
    <mxGraphModel dx="543" dy="375" grid="1" gridSize="10" guides="1" tooltips="1" connect="1" arrows="1" fold="1" page="1" pageScale="1" pageWidth="827" pageHeight="1169" math="0" shadow="0">
      <root>
        <mxCell id="0" />
        <mxCell id="1" parent="0" />
        <mxCell id="JtN5x_ONTuK07iQtiFOV-14" value="" style="rounded=1;whiteSpace=wrap;html=1;fillColor=none;dashed=1;" parent="1" vertex="1">
          <mxGeometry x="392" y="237.5" width="108" height="35" as="geometry" />
        </mxCell>
        <mxCell id="JtN5x_ONTuK07iQtiFOV-15" value="&lt;font style=&quot;font-size: 10px;&quot;&gt;Meseta&lt;/font&gt;" style="text;html=1;strokeColor=none;fillColor=none;align=center;verticalAlign=middle;whiteSpace=wrap;rounded=0;" parent="1" vertex="1">
          <mxGeometry x="350" y="237.5" width="40" height="30" as="geometry" />
        </mxCell>
        <mxCell id="JtN5x_ONTuK07iQtiFOV-17" value="h=6" style="ellipse;whiteSpace=wrap;html=1;aspect=fixed;" parent="1" vertex="1">
          <mxGeometry x="490" y="140" width="30" height="30" as="geometry" />
        </mxCell>
        <mxCell id="JtN5x_ONTuK07iQtiFOV-18" value="h=6" style="ellipse;whiteSpace=wrap;html=1;aspect=fixed;" parent="1" vertex="1">
          <mxGeometry x="430" y="190" width="30" height="30" as="geometry" />
        </mxCell>
        <mxCell id="JtN5x_ONTuK07iQtiFOV-19" value="h=5" style="ellipse;whiteSpace=wrap;html=1;aspect=fixed;" parent="1" vertex="1">
          <mxGeometry x="490" y="190" width="30" height="30" as="geometry" />
        </mxCell>
        <mxCell id="JtN5x_ONTuK07iQtiFOV-20" value="h=6" style="ellipse;whiteSpace=wrap;html=1;aspect=fixed;" parent="1" vertex="1">
          <mxGeometry x="550" y="190" width="30" height="30" as="geometry" />
        </mxCell>
        <mxCell id="JtN5x_ONTuK07iQtiFOV-21" value="h=3" style="ellipse;whiteSpace=wrap;html=1;aspect=fixed;" parent="1" vertex="1">
          <mxGeometry x="400" y="240" width="30" height="30" as="geometry" />
        </mxCell>
        <mxCell id="JtN5x_ONTuK07iQtiFOV-22" value="h=3" style="ellipse;whiteSpace=wrap;html=1;aspect=fixed;" parent="1" vertex="1">
          <mxGeometry x="460" y="240" width="30" height="30" as="geometry" />
        </mxCell>
        <mxCell id="JtN5x_ONTuK07iQtiFOV-23" value="h=4" style="ellipse;whiteSpace=wrap;html=1;aspect=fixed;" parent="1" vertex="1">
          <mxGeometry x="520" y="240" width="30" height="30" as="geometry" />
        </mxCell>
        <mxCell id="JtN5x_ONTuK07iQtiFOV-24" value="h=6" style="ellipse;whiteSpace=wrap;html=1;aspect=fixed;" parent="1" vertex="1">
          <mxGeometry x="580" y="240" width="30" height="30" as="geometry" />
        </mxCell>
        <mxCell id="JtN5x_ONTuK07iQtiFOV-25" value="" style="endArrow=classic;html=1;rounded=0;strokeWidth=1;endSize=4;" parent="1" edge="1">
          <mxGeometry width="50" height="50" relative="1" as="geometry">
            <mxPoint x="504.77" y="170" as="sourcePoint" />
            <mxPoint x="504.77" y="190" as="targetPoint" />
          </mxGeometry>
        </mxCell>
        <mxCell id="JtN5x_ONTuK07iQtiFOV-26" value="" style="endArrow=classic;html=1;rounded=0;strokeWidth=1;endSize=4;exitX=0.5;exitY=1;exitDx=0;exitDy=0;entryX=0.5;entryY=0;entryDx=0;entryDy=0;" parent="1" source="JtN5x_ONTuK07iQtiFOV-19" target="JtN5x_ONTuK07iQtiFOV-21" edge="1">
          <mxGeometry width="50" height="50" relative="1" as="geometry">
            <mxPoint x="424.77" y="280" as="sourcePoint" />
            <mxPoint x="424.77" y="300" as="targetPoint" />
          </mxGeometry>
        </mxCell>
        <mxCell id="JtN5x_ONTuK07iQtiFOV-27" value="" style="endArrow=classic;html=1;rounded=0;strokeWidth=1;endSize=4;exitX=0.5;exitY=1;exitDx=0;exitDy=0;entryX=0.5;entryY=0;entryDx=0;entryDy=0;" parent="1" source="JtN5x_ONTuK07iQtiFOV-19" target="JtN5x_ONTuK07iQtiFOV-22" edge="1">
          <mxGeometry width="50" height="50" relative="1" as="geometry">
            <mxPoint x="515" y="230" as="sourcePoint" />
            <mxPoint x="425" y="250" as="targetPoint" />
          </mxGeometry>
        </mxCell>
        <mxCell id="JtN5x_ONTuK07iQtiFOV-28" value="" style="endArrow=classic;html=1;rounded=0;strokeWidth=1;endSize=4;exitX=0.5;exitY=1;exitDx=0;exitDy=0;entryX=0.5;entryY=0;entryDx=0;entryDy=0;" parent="1" source="JtN5x_ONTuK07iQtiFOV-19" target="JtN5x_ONTuK07iQtiFOV-23" edge="1">
          <mxGeometry width="50" height="50" relative="1" as="geometry">
            <mxPoint x="515" y="230" as="sourcePoint" />
            <mxPoint x="485" y="250" as="targetPoint" />
          </mxGeometry>
        </mxCell>
        <mxCell id="JtN5x_ONTuK07iQtiFOV-29" value="" style="endArrow=classic;html=1;rounded=0;strokeWidth=1;endSize=4;entryX=0.5;entryY=0;entryDx=0;entryDy=0;exitX=0.5;exitY=1;exitDx=0;exitDy=0;" parent="1" source="JtN5x_ONTuK07iQtiFOV-19" target="JtN5x_ONTuK07iQtiFOV-24" edge="1">
          <mxGeometry width="50" height="50" relative="1" as="geometry">
            <mxPoint x="510" y="220" as="sourcePoint" />
            <mxPoint x="545" y="250" as="targetPoint" />
          </mxGeometry>
        </mxCell>
        <mxCell id="JtN5x_ONTuK07iQtiFOV-30" value="" style="endArrow=classic;html=1;rounded=0;strokeWidth=1;endSize=4;exitX=0.5;exitY=1;exitDx=0;exitDy=0;entryX=0.5;entryY=0;entryDx=0;entryDy=0;" parent="1" source="JtN5x_ONTuK07iQtiFOV-17" target="JtN5x_ONTuK07iQtiFOV-20" edge="1">
          <mxGeometry width="50" height="50" relative="1" as="geometry">
            <mxPoint x="514.77" y="180" as="sourcePoint" />
            <mxPoint x="560" y="180" as="targetPoint" />
          </mxGeometry>
        </mxCell>
        <mxCell id="JtN5x_ONTuK07iQtiFOV-31" value="" style="endArrow=classic;html=1;rounded=0;strokeWidth=1;endSize=4;exitX=0.5;exitY=1;exitDx=0;exitDy=0;entryX=0.5;entryY=0;entryDx=0;entryDy=0;" parent="1" source="JtN5x_ONTuK07iQtiFOV-17" target="JtN5x_ONTuK07iQtiFOV-18" edge="1">
          <mxGeometry width="50" height="50" relative="1" as="geometry">
            <mxPoint x="515" y="180" as="sourcePoint" />
            <mxPoint x="575" y="200" as="targetPoint" />
          </mxGeometry>
        </mxCell>
        <mxCell id="JtN5x_ONTuK07iQtiFOV-34" value="&lt;p style=&quot;line-height: 70%;&quot;&gt;&lt;font style=&quot;font-size: 10px;&quot;&gt;Max Local&lt;/font&gt;&lt;/p&gt;" style="text;html=1;strokeColor=none;fillColor=none;align=center;verticalAlign=middle;whiteSpace=wrap;rounded=0;" parent="1" vertex="1">
          <mxGeometry x="457" y="188" width="40" height="30" as="geometry" />
        </mxCell>
        <mxCell id="JtN5x_ONTuK07iQtiFOV-36" value="h=1" style="ellipse;whiteSpace=wrap;html=1;aspect=fixed;" parent="1" vertex="1">
          <mxGeometry x="600" y="190" width="30" height="30" as="geometry" />
        </mxCell>
        <mxCell id="JtN5x_ONTuK07iQtiFOV-37" value="" style="endArrow=classic;html=1;rounded=0;strokeWidth=1;endSize=4;" parent="1" edge="1">
          <mxGeometry width="50" height="50" relative="1" as="geometry">
            <mxPoint x="580" y="204.77" as="sourcePoint" />
            <mxPoint x="600" y="204.77" as="targetPoint" />
          </mxGeometry>
        </mxCell>
        <mxCell id="JtN5x_ONTuK07iQtiFOV-38" value="&lt;font style=&quot;font-size: 10px;&quot;&gt;Cresta&lt;/font&gt;" style="text;html=1;strokeColor=none;fillColor=none;align=center;verticalAlign=middle;whiteSpace=wrap;rounded=0;" parent="1" vertex="1">
          <mxGeometry x="630" y="190" width="40" height="30" as="geometry" />
        </mxCell>
        <mxCell id="JtN5x_ONTuK07iQtiFOV-39" value="" style="curved=1;endArrow=none;html=1;rounded=0;endFill=0;strokeColor=#97D077;strokeWidth=28;fillOpacity=100;strokeOpacity=40;" parent="1" edge="1">
          <mxGeometry width="50" height="50" relative="1" as="geometry">
            <mxPoint x="460" y="270" as="sourcePoint" />
            <mxPoint x="506" y="130" as="targetPoint" />
            <Array as="points">
              <mxPoint x="496" y="240" />
              <mxPoint x="506" y="200" />
            </Array>
          </mxGeometry>
        </mxCell>
      </root>
    </mxGraphModel>
  </diagram>
</mxfile>
