<mxfile host="Electron" modified="2023-04-26T18:01:15.956Z" agent="Mozilla/5.0 (Macintosh; Intel Mac OS X 10_15_7) AppleWebKit/537.36 (KHTML, like Gecko) draw.io/21.2.1 Chrome/112.0.5615.87 Electron/24.1.2 Safari/537.36" etag="DIQLxVzxc7aLDQcqP8HE" version="21.2.1" type="device">
  <diagram name="Página-1" id="2o9Z_DWrwgvruOfsCv6w">
    <mxGraphModel dx="582" dy="402" grid="1" gridSize="10" guides="1" tooltips="1" connect="1" arrows="1" fold="1" page="1" pageScale="1" pageWidth="827" pageHeight="1169" math="0" shadow="0">
      <root>
        <mxCell id="0" />
        <mxCell id="1" parent="0" />
        <mxCell id="wMj1548tgl6-s6KjBw9A-1" value="" style="endArrow=none;html=1;rounded=0;strokeWidth=1.5;" parent="1" edge="1">
          <mxGeometry width="50" height="50" relative="1" as="geometry">
            <mxPoint x="270" y="390" as="sourcePoint" />
            <mxPoint x="270.5" y="40" as="targetPoint" />
          </mxGeometry>
        </mxCell>
        <mxCell id="wMj1548tgl6-s6KjBw9A-2" value="" style="endArrow=none;html=1;rounded=0;strokeWidth=1.5;" parent="1" edge="1">
          <mxGeometry width="50" height="50" relative="1" as="geometry">
            <mxPoint x="511" y="390" as="sourcePoint" />
            <mxPoint x="510.5" y="40" as="targetPoint" />
          </mxGeometry>
        </mxCell>
        <mxCell id="wMj1548tgl6-s6KjBw9A-3" value="" style="endArrow=classic;html=1;rounded=0;" parent="1" edge="1">
          <mxGeometry width="50" height="50" relative="1" as="geometry">
            <mxPoint x="270.5" y="59" as="sourcePoint" />
            <mxPoint x="510.5" y="69" as="targetPoint" />
          </mxGeometry>
        </mxCell>
        <mxCell id="wMj1548tgl6-s6KjBw9A-6" value="" style="endArrow=classic;html=1;rounded=0;" parent="1" edge="1">
          <mxGeometry width="50" height="50" relative="1" as="geometry">
            <mxPoint x="510.5" y="89" as="sourcePoint" />
            <mxPoint x="270.5" y="99" as="targetPoint" />
          </mxGeometry>
        </mxCell>
        <mxCell id="wMj1548tgl6-s6KjBw9A-7" value="" style="endArrow=classic;html=1;rounded=0;" parent="1" edge="1">
          <mxGeometry width="50" height="50" relative="1" as="geometry">
            <mxPoint x="270.5" y="143" as="sourcePoint" />
            <mxPoint x="510.5" y="153" as="targetPoint" />
          </mxGeometry>
        </mxCell>
        <mxCell id="wMj1548tgl6-s6KjBw9A-12" value="1" style="text;html=1;strokeColor=none;fillColor=none;align=center;verticalAlign=middle;whiteSpace=wrap;rounded=0;" parent="1" vertex="1">
          <mxGeometry x="230.5" y="49" width="40" height="20" as="geometry" />
        </mxCell>
        <mxCell id="wMj1548tgl6-s6KjBw9A-13" value="2" style="text;html=1;strokeColor=none;fillColor=none;align=center;verticalAlign=middle;whiteSpace=wrap;rounded=0;" parent="1" vertex="1">
          <mxGeometry x="510.5" y="79" width="40" height="20" as="geometry" />
        </mxCell>
        <mxCell id="wMj1548tgl6-s6KjBw9A-14" value="3" style="text;html=1;strokeColor=none;fillColor=none;align=center;verticalAlign=middle;whiteSpace=wrap;rounded=0;" parent="1" vertex="1">
          <mxGeometry x="230.5" y="109" width="40" height="20" as="geometry" />
        </mxCell>
        <mxCell id="wMj1548tgl6-s6KjBw9A-23" value="Cliente" style="text;html=1;strokeColor=none;fillColor=none;align=center;verticalAlign=middle;whiteSpace=wrap;rounded=0;" parent="1" vertex="1">
          <mxGeometry x="240.5" y="10" width="60" height="30" as="geometry" />
        </mxCell>
        <mxCell id="wMj1548tgl6-s6KjBw9A-24" value="Servidor" style="text;html=1;strokeColor=none;fillColor=none;align=center;verticalAlign=middle;whiteSpace=wrap;rounded=0;" parent="1" vertex="1">
          <mxGeometry x="480.5" y="10" width="60" height="30" as="geometry" />
        </mxCell>
        <mxCell id="wMj1548tgl6-s6KjBw9A-25" value="SYN 0&amp;nbsp; win 4096" style="text;html=1;strokeColor=none;fillColor=none;align=center;verticalAlign=middle;whiteSpace=wrap;rounded=0;" parent="1" vertex="1">
          <mxGeometry x="345.5" y="39" width="100" height="30" as="geometry" />
        </mxCell>
        <mxCell id="wMj1548tgl6-s6KjBw9A-28" value="PSH 1:1025 (&lt;font color=&quot;#ea6b66&quot;&gt;1024&lt;/font&gt;) ACK1" style="text;html=1;strokeColor=none;fillColor=none;align=center;verticalAlign=middle;whiteSpace=wrap;rounded=0;" parent="1" vertex="1">
          <mxGeometry x="325.5" y="123" width="140" height="30" as="geometry" />
        </mxCell>
        <mxCell id="Eih3tUWwyeWmItp1fYXR-1" value="ACK 1&amp;nbsp; SYN 0" style="text;html=1;strokeColor=none;fillColor=none;align=center;verticalAlign=middle;whiteSpace=wrap;rounded=0;" parent="1" vertex="1">
          <mxGeometry x="345.5" y="69" width="100" height="30" as="geometry" />
        </mxCell>
        <mxCell id="Eih3tUWwyeWmItp1fYXR-2" value="4" style="text;html=1;strokeColor=none;fillColor=none;align=center;verticalAlign=middle;whiteSpace=wrap;rounded=0;" parent="1" vertex="1">
          <mxGeometry x="230.5" y="133" width="40" height="20" as="geometry" />
        </mxCell>
        <mxCell id="Eih3tUWwyeWmItp1fYXR-3" value="5" style="text;html=1;strokeColor=none;fillColor=none;align=center;verticalAlign=middle;whiteSpace=wrap;rounded=0;" parent="1" vertex="1">
          <mxGeometry x="230.5" y="156" width="40" height="20" as="geometry" />
        </mxCell>
        <mxCell id="Eih3tUWwyeWmItp1fYXR-4" value="" style="endArrow=classic;html=1;rounded=0;" parent="1" edge="1">
          <mxGeometry width="50" height="50" relative="1" as="geometry">
            <mxPoint x="270.5" y="168" as="sourcePoint" />
            <mxPoint x="510.5" y="178" as="targetPoint" />
          </mxGeometry>
        </mxCell>
        <mxCell id="Eih3tUWwyeWmItp1fYXR-6" value="" style="endArrow=classic;html=1;rounded=0;" parent="1" edge="1">
          <mxGeometry width="50" height="50" relative="1" as="geometry">
            <mxPoint x="270.5" y="193" as="sourcePoint" />
            <mxPoint x="510.5" y="203" as="targetPoint" />
          </mxGeometry>
        </mxCell>
        <mxCell id="Eih3tUWwyeWmItp1fYXR-8" value="PSH 1025:2049 (&lt;font color=&quot;#ea6b66&quot;&gt;1024&lt;/font&gt;) ACK1" style="text;html=1;strokeColor=none;fillColor=none;align=center;verticalAlign=middle;whiteSpace=wrap;rounded=0;" parent="1" vertex="1">
          <mxGeometry x="315.5" y="148" width="160" height="30" as="geometry" />
        </mxCell>
        <mxCell id="Eih3tUWwyeWmItp1fYXR-9" value="PSH 2049:2073 (&lt;font color=&quot;#ea6b66&quot;&gt;1024&lt;/font&gt;) ACK1" style="text;html=1;strokeColor=none;fillColor=none;align=center;verticalAlign=middle;whiteSpace=wrap;rounded=0;" parent="1" vertex="1">
          <mxGeometry x="315.5" y="173" width="160" height="30" as="geometry" />
        </mxCell>
        <mxCell id="Eih3tUWwyeWmItp1fYXR-12" value="" style="endArrow=classic;html=1;rounded=0;" parent="1" edge="1">
          <mxGeometry width="50" height="50" relative="1" as="geometry">
            <mxPoint x="270.5" y="119" as="sourcePoint" />
            <mxPoint x="510.5" y="129" as="targetPoint" />
          </mxGeometry>
        </mxCell>
        <mxCell id="Eih3tUWwyeWmItp1fYXR-13" value="ACK1 win 4096" style="text;html=1;strokeColor=none;fillColor=none;align=center;verticalAlign=middle;whiteSpace=wrap;rounded=0;" parent="1" vertex="1">
          <mxGeometry x="335" y="99" width="110" height="30" as="geometry" />
        </mxCell>
        <mxCell id="Eih3tUWwyeWmItp1fYXR-14" value="6" style="text;html=1;strokeColor=none;fillColor=none;align=center;verticalAlign=middle;whiteSpace=wrap;rounded=0;" parent="1" vertex="1">
          <mxGeometry x="230.5" y="178" width="40" height="20" as="geometry" />
        </mxCell>
        <mxCell id="Eih3tUWwyeWmItp1fYXR-16" value="" style="endArrow=none;dashed=1;html=1;rounded=0;strokeColor=#666666;" parent="1" edge="1">
          <mxGeometry width="50" height="50" relative="1" as="geometry">
            <mxPoint x="240" y="219" as="sourcePoint" />
            <mxPoint x="540.5" y="219" as="targetPoint" />
          </mxGeometry>
        </mxCell>
        <mxCell id="Eih3tUWwyeWmItp1fYXR-17" value="&lt;font style=&quot;font-size: 8px;&quot; color=&quot;#666666&quot;&gt;Ventana utilizable&lt;/font&gt;" style="text;html=1;strokeColor=none;fillColor=none;align=center;verticalAlign=middle;whiteSpace=wrap;rounded=0;" parent="1" vertex="1">
          <mxGeometry x="240" y="194" width="75.5" height="30" as="geometry" />
        </mxCell>
        <mxCell id="Eih3tUWwyeWmItp1fYXR-18" value="" style="endArrow=classic;html=1;rounded=0;" parent="1" edge="1">
          <mxGeometry width="50" height="50" relative="1" as="geometry">
            <mxPoint x="510.5" y="239" as="sourcePoint" />
            <mxPoint x="270.5" y="249" as="targetPoint" />
          </mxGeometry>
        </mxCell>
        <mxCell id="Eih3tUWwyeWmItp1fYXR-19" value="ACK 2049&amp;nbsp; win 4096" style="text;html=1;strokeColor=none;fillColor=none;align=center;verticalAlign=middle;whiteSpace=wrap;rounded=0;" parent="1" vertex="1">
          <mxGeometry x="338" y="219" width="115" height="30" as="geometry" />
        </mxCell>
        <mxCell id="Eih3tUWwyeWmItp1fYXR-20" value="" style="endArrow=classic;html=1;rounded=0;" parent="1" edge="1">
          <mxGeometry width="50" height="50" relative="1" as="geometry">
            <mxPoint x="510.5" y="264" as="sourcePoint" />
            <mxPoint x="270.5" y="274" as="targetPoint" />
          </mxGeometry>
        </mxCell>
        <mxCell id="Eih3tUWwyeWmItp1fYXR-21" value="ACK 3073&amp;nbsp; win 3072" style="text;html=1;strokeColor=none;fillColor=none;align=center;verticalAlign=middle;whiteSpace=wrap;rounded=0;" parent="1" vertex="1">
          <mxGeometry x="338" y="244" width="115" height="30" as="geometry" />
        </mxCell>
        <mxCell id="Eih3tUWwyeWmItp1fYXR-22" value="7" style="text;html=1;strokeColor=none;fillColor=none;align=center;verticalAlign=middle;whiteSpace=wrap;rounded=0;" parent="1" vertex="1">
          <mxGeometry x="510.5" y="228" width="40" height="20" as="geometry" />
        </mxCell>
        <mxCell id="Eih3tUWwyeWmItp1fYXR-23" value="8" style="text;html=1;strokeColor=none;fillColor=none;align=center;verticalAlign=middle;whiteSpace=wrap;rounded=0;" parent="1" vertex="1">
          <mxGeometry x="510.5" y="250" width="40" height="20" as="geometry" />
        </mxCell>
        <mxCell id="Eih3tUWwyeWmItp1fYXR-25" value="" style="endArrow=none;dashed=1;html=1;rounded=0;strokeColor=#666666;" parent="1" edge="1">
          <mxGeometry width="50" height="50" relative="1" as="geometry">
            <mxPoint x="240.5" y="380" as="sourcePoint" />
            <mxPoint x="537" y="380" as="targetPoint" />
          </mxGeometry>
        </mxCell>
        <mxCell id="Eih3tUWwyeWmItp1fYXR-26" value="&lt;font color=&quot;#b5739d&quot;&gt;1&lt;/font&gt;" style="ellipse;whiteSpace=wrap;html=1;aspect=fixed;" parent="1" vertex="1">
          <mxGeometry x="453" y="104" width="20" height="20" as="geometry" />
        </mxCell>
        <mxCell id="Eih3tUWwyeWmItp1fYXR-27" value="&lt;font color=&quot;#b5739d&quot;&gt;2&lt;/font&gt;" style="ellipse;whiteSpace=wrap;html=1;aspect=fixed;" parent="1" vertex="1">
          <mxGeometry x="315.5" y="224" width="20" height="20" as="geometry" />
        </mxCell>
        <mxCell id="Eih3tUWwyeWmItp1fYXR-28" value="&lt;font color=&quot;#b5739d&quot;&gt;3&lt;/font&gt;" style="ellipse;whiteSpace=wrap;html=1;aspect=fixed;" parent="1" vertex="1">
          <mxGeometry x="315.5" y="250" width="20" height="20" as="geometry" />
        </mxCell>
        <mxCell id="Eih3tUWwyeWmItp1fYXR-29" value="" style="endArrow=classic;html=1;rounded=0;" parent="1" edge="1">
          <mxGeometry width="50" height="50" relative="1" as="geometry">
            <mxPoint x="270.5" y="309" as="sourcePoint" />
            <mxPoint x="510.5" y="319" as="targetPoint" />
          </mxGeometry>
        </mxCell>
        <mxCell id="Eih3tUWwyeWmItp1fYXR-30" value="PSH 3073:4097 (&lt;font color=&quot;#ea6b66&quot;&gt;1024&lt;/font&gt;) ACK1 win 4096" style="text;html=1;strokeColor=none;fillColor=none;align=center;verticalAlign=middle;whiteSpace=wrap;rounded=0;" parent="1" vertex="1">
          <mxGeometry x="280" y="289" width="220" height="30" as="geometry" />
        </mxCell>
        <mxCell id="Eih3tUWwyeWmItp1fYXR-31" value="" style="endArrow=classic;html=1;rounded=0;" parent="1" edge="1">
          <mxGeometry width="50" height="50" relative="1" as="geometry">
            <mxPoint x="510.5" y="349" as="sourcePoint" />
            <mxPoint x="270.5" y="359" as="targetPoint" />
          </mxGeometry>
        </mxCell>
        <mxCell id="Eih3tUWwyeWmItp1fYXR-32" value="ACK 4097&amp;nbsp; win 4096" style="text;html=1;strokeColor=none;fillColor=none;align=center;verticalAlign=middle;whiteSpace=wrap;rounded=0;" parent="1" vertex="1">
          <mxGeometry x="338" y="329" width="115" height="30" as="geometry" />
        </mxCell>
        <mxCell id="Eih3tUWwyeWmItp1fYXR-33" value="9" style="text;html=1;strokeColor=none;fillColor=none;align=center;verticalAlign=middle;whiteSpace=wrap;rounded=0;" parent="1" vertex="1">
          <mxGeometry x="230.5" y="294" width="40" height="20" as="geometry" />
        </mxCell>
        <mxCell id="Eih3tUWwyeWmItp1fYXR-34" value="10" style="text;html=1;strokeColor=none;fillColor=none;align=center;verticalAlign=middle;whiteSpace=wrap;rounded=0;" parent="1" vertex="1">
          <mxGeometry x="510.5" y="339" width="40" height="20" as="geometry" />
        </mxCell>
        <mxCell id="Eih3tUWwyeWmItp1fYXR-35" value="&lt;font color=&quot;#b5739d&quot;&gt;4&lt;/font&gt;" style="ellipse;whiteSpace=wrap;html=1;aspect=fixed;" parent="1" vertex="1">
          <mxGeometry x="500.5" y="294" width="20" height="20" as="geometry" />
        </mxCell>
        <mxCell id="Eih3tUWwyeWmItp1fYXR-36" value="&lt;font color=&quot;#b5739d&quot;&gt;5&lt;/font&gt;" style="ellipse;whiteSpace=wrap;html=1;aspect=fixed;" parent="1" vertex="1">
          <mxGeometry x="318" y="334" width="20" height="20" as="geometry" />
        </mxCell>
      </root>
    </mxGraphModel>
  </diagram>
</mxfile>
