<mxfile host="Electron" modified="2023-05-18T17:25:09.405Z" agent="Mozilla/5.0 (Macintosh; Intel Mac OS X 10_15_7) AppleWebKit/537.36 (KHTML, like Gecko) draw.io/21.2.1 Chrome/112.0.5615.87 Electron/24.1.2 Safari/537.36" etag="UnCNrRmh_3fCIQznpbjO" version="21.2.1" type="device">
  <diagram name="Página-1" id="m5dXNQuYHKiAuhF2MZjW">
    <mxGraphModel dx="332" dy="244" grid="1" gridSize="10" guides="1" tooltips="1" connect="1" arrows="1" fold="1" page="1" pageScale="1" pageWidth="827" pageHeight="1169" math="0" shadow="0">
      <root>
        <mxCell id="0" />
        <mxCell id="1" parent="0" />
        <mxCell id="HDzW-8yaRX6wGINiVlOC-11" value="&lt;font style=&quot;font-size: 9px;&quot;&gt;&lt;span style=&quot;border-color: var(--border-color);&quot;&gt;ƒ&lt;/span&gt;&lt;sup&gt;o&lt;/sup&gt;&lt;sub&gt;k&lt;/sub&gt;&#39;(neta&lt;sup&gt;o&lt;/sup&gt;&lt;sub&gt;pk&lt;/sub&gt;)&lt;/font&gt;" style="text;html=1;strokeColor=none;fillColor=none;align=center;verticalAlign=middle;whiteSpace=wrap;rounded=0;rotation=-30;" vertex="1" parent="1">
          <mxGeometry x="65.5" y="88" width="63" height="13" as="geometry" />
        </mxCell>
        <mxCell id="HDzW-8yaRX6wGINiVlOC-14" value="k&lt;sub&gt;1&lt;/sub&gt;" style="ellipse;whiteSpace=wrap;html=1;aspect=fixed;" vertex="1" parent="1">
          <mxGeometry x="180" y="31" width="20" height="20" as="geometry" />
        </mxCell>
        <mxCell id="HDzW-8yaRX6wGINiVlOC-15" value="k&lt;sub&gt;2&lt;/sub&gt;" style="ellipse;whiteSpace=wrap;html=1;aspect=fixed;" vertex="1" parent="1">
          <mxGeometry x="180" y="71" width="20" height="20" as="geometry" />
        </mxCell>
        <mxCell id="HDzW-8yaRX6wGINiVlOC-16" value="k&lt;sub&gt;3&lt;/sub&gt;" style="ellipse;whiteSpace=wrap;html=1;aspect=fixed;" vertex="1" parent="1">
          <mxGeometry x="180" y="111" width="20" height="20" as="geometry" />
        </mxCell>
        <mxCell id="HDzW-8yaRX6wGINiVlOC-17" value="j" style="ellipse;whiteSpace=wrap;html=1;aspect=fixed;" vertex="1" parent="1">
          <mxGeometry x="80" y="71" width="20" height="20" as="geometry" />
        </mxCell>
        <mxCell id="HDzW-8yaRX6wGINiVlOC-18" value="" style="endArrow=classic;html=1;rounded=0;entryX=0;entryY=0.5;entryDx=0;entryDy=0;endSize=5;" edge="1" parent="1" target="HDzW-8yaRX6wGINiVlOC-14">
          <mxGeometry width="50" height="50" relative="1" as="geometry">
            <mxPoint x="100" y="80.81" as="sourcePoint" />
            <mxPoint x="169.99999999999991" y="80.81" as="targetPoint" />
          </mxGeometry>
        </mxCell>
        <mxCell id="HDzW-8yaRX6wGINiVlOC-19" value="" style="endArrow=classic;html=1;rounded=0;entryX=0;entryY=0.5;entryDx=0;entryDy=0;endSize=5;exitX=1;exitY=0.5;exitDx=0;exitDy=0;" edge="1" parent="1" source="HDzW-8yaRX6wGINiVlOC-17" target="HDzW-8yaRX6wGINiVlOC-15">
          <mxGeometry width="50" height="50" relative="1" as="geometry">
            <mxPoint x="110" y="90.81" as="sourcePoint" />
            <mxPoint x="190" y="51" as="targetPoint" />
          </mxGeometry>
        </mxCell>
        <mxCell id="HDzW-8yaRX6wGINiVlOC-20" value="" style="endArrow=classic;html=1;rounded=0;entryX=0;entryY=0.5;entryDx=0;entryDy=0;endSize=5;" edge="1" parent="1" target="HDzW-8yaRX6wGINiVlOC-16">
          <mxGeometry width="50" height="50" relative="1" as="geometry">
            <mxPoint x="100" y="81" as="sourcePoint" />
            <mxPoint x="190" y="91" as="targetPoint" />
          </mxGeometry>
        </mxCell>
        <mxCell id="HDzW-8yaRX6wGINiVlOC-22" value="&lt;font style=&quot;font-size: 10px;&quot;&gt;δ&lt;sup&gt;o&lt;/sup&gt;&lt;sub style=&quot;border-color: var(--border-color);&quot;&gt;pk1&lt;/sub&gt;&lt;/font&gt;" style="text;html=1;strokeColor=none;fillColor=none;align=center;verticalAlign=middle;whiteSpace=wrap;rounded=0;" vertex="1" parent="1">
          <mxGeometry x="165" y="20" width="15" height="10" as="geometry" />
        </mxCell>
        <mxCell id="HDzW-8yaRX6wGINiVlOC-23" value="&lt;font style=&quot;font-size: 10px;&quot;&gt;δ&lt;sup&gt;o&lt;/sup&gt;&lt;sub style=&quot;border-color: var(--border-color);&quot;&gt;pk2&lt;/sub&gt;&lt;/font&gt;" style="text;html=1;strokeColor=none;fillColor=none;align=center;verticalAlign=middle;whiteSpace=wrap;rounded=0;" vertex="1" parent="1">
          <mxGeometry x="165" y="60" width="15" height="10" as="geometry" />
        </mxCell>
        <mxCell id="HDzW-8yaRX6wGINiVlOC-24" value="&lt;font style=&quot;font-size: 10px;&quot;&gt;δ&lt;sup&gt;o&lt;/sup&gt;&lt;sub style=&quot;border-color: var(--border-color);&quot;&gt;pk3&lt;/sub&gt;&lt;/font&gt;" style="text;html=1;strokeColor=none;fillColor=none;align=center;verticalAlign=middle;whiteSpace=wrap;rounded=0;" vertex="1" parent="1">
          <mxGeometry x="165" y="100" width="15" height="10" as="geometry" />
        </mxCell>
        <mxCell id="HDzW-8yaRX6wGINiVlOC-26" value="&lt;span style=&quot;font-size: 10px;&quot;&gt;W&lt;sup&gt;o&lt;/sup&gt;&lt;sub&gt;k1j&lt;/sub&gt;&lt;/span&gt;" style="text;html=1;strokeColor=none;fillColor=none;align=center;verticalAlign=middle;whiteSpace=wrap;rounded=0;" vertex="1" parent="1">
          <mxGeometry x="132" y="43" width="15" height="10" as="geometry" />
        </mxCell>
        <mxCell id="HDzW-8yaRX6wGINiVlOC-27" value="&lt;span style=&quot;font-size: 10px;&quot;&gt;W&lt;sup&gt;o&lt;/sup&gt;&lt;sub&gt;k2j&lt;/sub&gt;&lt;/span&gt;" style="text;html=1;strokeColor=none;fillColor=none;align=center;verticalAlign=middle;whiteSpace=wrap;rounded=0;" vertex="1" parent="1">
          <mxGeometry x="133" y="67" width="15" height="10" as="geometry" />
        </mxCell>
        <mxCell id="HDzW-8yaRX6wGINiVlOC-28" value="&lt;span style=&quot;font-size: 10px;&quot;&gt;W&lt;sup&gt;o&lt;/sup&gt;&lt;sub&gt;k3j&lt;/sub&gt;&lt;/span&gt;" style="text;html=1;strokeColor=none;fillColor=none;align=center;verticalAlign=middle;whiteSpace=wrap;rounded=0;" vertex="1" parent="1">
          <mxGeometry x="133" y="86" width="15" height="10" as="geometry" />
        </mxCell>
        <mxCell id="HDzW-8yaRX6wGINiVlOC-29" value="" style="endArrow=classic;html=1;rounded=0;entryX=0;entryY=0.5;entryDx=0;entryDy=0;" edge="1" parent="1">
          <mxGeometry width="50" height="50" relative="1" as="geometry">
            <mxPoint x="50" y="81" as="sourcePoint" />
            <mxPoint x="79.99999999999991" y="80.81" as="targetPoint" />
          </mxGeometry>
        </mxCell>
        <mxCell id="HDzW-8yaRX6wGINiVlOC-30" value="δ&lt;sup&gt;h&lt;/sup&gt;&lt;sub style=&quot;border-color: var(--border-color);&quot;&gt;pk&lt;/sub&gt;" style="text;html=1;strokeColor=none;fillColor=none;align=center;verticalAlign=middle;whiteSpace=wrap;rounded=0;" vertex="1" parent="1">
          <mxGeometry x="40" y="47" width="60" height="30" as="geometry" />
        </mxCell>
        <mxCell id="HDzW-8yaRX6wGINiVlOC-33" value="" style="endArrow=classic;html=1;rounded=0;endSize=4;" edge="1" parent="1">
          <mxGeometry width="50" height="50" relative="1" as="geometry">
            <mxPoint x="200" y="41.1" as="sourcePoint" />
            <mxPoint x="220" y="41" as="targetPoint" />
          </mxGeometry>
        </mxCell>
        <mxCell id="HDzW-8yaRX6wGINiVlOC-34" value="" style="endArrow=classic;html=1;rounded=0;endSize=4;" edge="1" parent="1">
          <mxGeometry width="50" height="50" relative="1" as="geometry">
            <mxPoint x="200" y="81.01" as="sourcePoint" />
            <mxPoint x="220" y="80.91" as="targetPoint" />
          </mxGeometry>
        </mxCell>
        <mxCell id="HDzW-8yaRX6wGINiVlOC-35" value="" style="endArrow=classic;html=1;rounded=0;endSize=4;" edge="1" parent="1">
          <mxGeometry width="50" height="50" relative="1" as="geometry">
            <mxPoint x="200" y="121.01" as="sourcePoint" />
            <mxPoint x="220" y="120.91" as="targetPoint" />
          </mxGeometry>
        </mxCell>
      </root>
    </mxGraphModel>
  </diagram>
</mxfile>
