<mxfile host="Electron" modified="2023-05-18T10:23:22.963Z" agent="Mozilla/5.0 (Macintosh; Intel Mac OS X 10_15_7) AppleWebKit/537.36 (KHTML, like Gecko) draw.io/21.2.1 Chrome/112.0.5615.87 Electron/24.1.2 Safari/537.36" etag="NkBx0i3VOaWsIoTOmQWG" version="21.2.1" type="device">
  <diagram name="Página-1" id="Ob-u7RnI_ZUYlqLJ4Ylh">
    <mxGraphModel dx="398" dy="275" grid="1" gridSize="10" guides="1" tooltips="1" connect="1" arrows="1" fold="1" page="1" pageScale="1" pageWidth="827" pageHeight="1169" math="0" shadow="0">
      <root>
        <mxCell id="0" />
        <mxCell id="1" parent="0" />
        <mxCell id="u-siVFoRlAezzdwyugNW-1" value="" style="rounded=0;whiteSpace=wrap;html=1;rotation=45;fillColor=#7EA6E0;strokeColor=none;fillOpacity=40;" vertex="1" parent="1">
          <mxGeometry x="230.64" y="57.8" width="63.19" height="22.21" as="geometry" />
        </mxCell>
        <mxCell id="RaYTgsDw3hUf9qARrpj0-18" value="" style="endArrow=none;dashed=1;html=1;rounded=0;entryX=0.387;entryY=0.61;entryDx=0;entryDy=0;entryPerimeter=0;" parent="1" target="RaYTgsDw3hUf9qARrpj0-56" edge="1">
          <mxGeometry width="50" height="50" relative="1" as="geometry">
            <mxPoint x="214.33333333333331" y="62.84210526315789" as="sourcePoint" />
            <mxPoint x="261" y="62.84210526315789" as="targetPoint" />
          </mxGeometry>
        </mxCell>
        <mxCell id="RaYTgsDw3hUf9qARrpj0-19" value="" style="endArrow=none;dashed=1;html=1;rounded=0;" parent="1" edge="1">
          <mxGeometry width="50" height="50" relative="1" as="geometry">
            <mxPoint x="265.93" y="64.84210526315789" as="sourcePoint" />
            <mxPoint x="265.93" y="115.36842105263158" as="targetPoint" />
          </mxGeometry>
        </mxCell>
        <mxCell id="RaYTgsDw3hUf9qARrpj0-17" value="" style="endArrow=none;html=1;rounded=0;" parent="1" edge="1">
          <mxGeometry width="50" height="50" relative="1" as="geometry">
            <mxPoint x="202.66666666666666" y="115.36842105263158" as="sourcePoint" />
            <mxPoint x="272.66666666666663" y="115.36842105263158" as="targetPoint" />
          </mxGeometry>
        </mxCell>
        <mxCell id="RaYTgsDw3hUf9qARrpj0-16" value="" style="endArrow=none;html=1;rounded=0;" parent="1" edge="1">
          <mxGeometry width="50" height="50" relative="1" as="geometry">
            <mxPoint x="214.33333333333331" y="127.99999999999999" as="sourcePoint" />
            <mxPoint x="214.33333333333331" y="52.21052631578947" as="targetPoint" />
          </mxGeometry>
        </mxCell>
        <mxCell id="RaYTgsDw3hUf9qARrpj0-51" value="" style="ellipse;whiteSpace=wrap;html=1;aspect=fixed;strokeColor=#EA6B66;fillColor=#EA6B66;container=0;" parent="1" vertex="1">
          <mxGeometry x="212" y="61" width="4" height="4" as="geometry" />
        </mxCell>
        <mxCell id="RaYTgsDw3hUf9qARrpj0-57" value="" style="group" parent="1" vertex="1" connectable="0">
          <mxGeometry x="40" y="43" width="110" height="80" as="geometry" />
        </mxCell>
        <mxCell id="RaYTgsDw3hUf9qARrpj0-2" value="i" style="ellipse;whiteSpace=wrap;html=1;aspect=fixed;" parent="RaYTgsDw3hUf9qARrpj0-57" vertex="1">
          <mxGeometry x="55.00000000000001" y="16" width="32" height="32" as="geometry" />
        </mxCell>
        <mxCell id="RaYTgsDw3hUf9qARrpj0-3" value="" style="endArrow=classic;html=1;rounded=0;exitX=1;exitY=0.5;exitDx=0;exitDy=0;entryX=0;entryY=0;entryDx=0;entryDy=0;endSize=3;" parent="RaYTgsDw3hUf9qARrpj0-57" source="RaYTgsDw3hUf9qARrpj0-4" target="RaYTgsDw3hUf9qARrpj0-2" edge="1">
          <mxGeometry width="50" height="50" relative="1" as="geometry">
            <mxPoint x="119.16666666666666" y="104" as="sourcePoint" />
            <mxPoint x="45.833333333333336" y="108" as="targetPoint" />
          </mxGeometry>
        </mxCell>
        <mxCell id="RaYTgsDw3hUf9qARrpj0-4" value="&lt;font style=&quot;font-size: 10px;&quot;&gt;X&lt;sub&gt;1&lt;/sub&gt;&lt;/font&gt;" style="text;html=1;strokeColor=none;fillColor=none;align=center;verticalAlign=middle;whiteSpace=wrap;rounded=0;" parent="RaYTgsDw3hUf9qARrpj0-57" vertex="1">
          <mxGeometry y="8" width="18.333333333333332" height="16" as="geometry" />
        </mxCell>
        <mxCell id="RaYTgsDw3hUf9qARrpj0-5" value="&lt;font style=&quot;font-size: 10px;&quot;&gt;X&lt;sub&gt;2&lt;/sub&gt;&lt;/font&gt;" style="text;html=1;strokeColor=none;fillColor=none;align=center;verticalAlign=middle;whiteSpace=wrap;rounded=0;" parent="RaYTgsDw3hUf9qARrpj0-57" vertex="1">
          <mxGeometry y="40" width="18.333333333333332" height="16" as="geometry" />
        </mxCell>
        <mxCell id="RaYTgsDw3hUf9qARrpj0-6" value="" style="endArrow=classic;html=1;rounded=0;exitX=1;exitY=0.5;exitDx=0;exitDy=0;entryX=0;entryY=1;entryDx=0;entryDy=0;endSize=3;" parent="RaYTgsDw3hUf9qARrpj0-57" source="RaYTgsDw3hUf9qARrpj0-5" target="RaYTgsDw3hUf9qARrpj0-2" edge="1">
          <mxGeometry width="50" height="50" relative="1" as="geometry">
            <mxPoint x="27.500000000000004" y="20" as="sourcePoint" />
            <mxPoint x="69.66666666666666" y="28.799999999999997" as="targetPoint" />
          </mxGeometry>
        </mxCell>
        <mxCell id="RaYTgsDw3hUf9qARrpj0-7" value="" style="endArrow=classic;html=1;rounded=0;entryX=0.5;entryY=1;entryDx=0;entryDy=0;endSize=3;exitX=0.436;exitY=0;exitDx=0;exitDy=0;exitPerimeter=0;" parent="RaYTgsDw3hUf9qARrpj0-57" target="RaYTgsDw3hUf9qARrpj0-2" edge="1" source="RaYTgsDw3hUf9qARrpj0-8">
          <mxGeometry width="50" height="50" relative="1" as="geometry">
            <mxPoint x="73.33333333333333" y="64" as="sourcePoint" />
            <mxPoint x="69.66666666666666" y="51.199999999999996" as="targetPoint" />
          </mxGeometry>
        </mxCell>
        <mxCell id="RaYTgsDw3hUf9qARrpj0-8" value="&lt;font style=&quot;font-size: 10px;&quot;&gt;b&lt;sub&gt;i&lt;/sub&gt;=-1&lt;/font&gt;" style="text;html=1;strokeColor=none;fillColor=none;align=center;verticalAlign=middle;whiteSpace=wrap;rounded=0;" parent="RaYTgsDw3hUf9qARrpj0-57" vertex="1">
          <mxGeometry x="55.00000000000001" y="64" width="36.666666666666664" height="16" as="geometry" />
        </mxCell>
        <mxCell id="RaYTgsDw3hUf9qARrpj0-9" value="&lt;font style=&quot;font-size: 10px;&quot;&gt;W = 0.6&lt;/font&gt;" style="text;html=1;strokeColor=none;fillColor=none;align=center;verticalAlign=middle;whiteSpace=wrap;rounded=0;" parent="RaYTgsDw3hUf9qARrpj0-57" vertex="1">
          <mxGeometry x="18.333333333333332" width="45.833333333333336" height="16" as="geometry" />
        </mxCell>
        <mxCell id="RaYTgsDw3hUf9qARrpj0-10" value="&lt;font style=&quot;font-size: 10px;&quot;&gt;W = 0.7&lt;/font&gt;" style="text;html=1;strokeColor=none;fillColor=none;align=center;verticalAlign=middle;whiteSpace=wrap;rounded=0;" parent="RaYTgsDw3hUf9qARrpj0-57" vertex="1">
          <mxGeometry x="18.333333333333332" y="48" width="45.833333333333336" height="16" as="geometry" />
        </mxCell>
        <mxCell id="RaYTgsDw3hUf9qARrpj0-13" value="" style="endArrow=classic;html=1;rounded=0;exitX=1;exitY=0.5;exitDx=0;exitDy=0;endSize=3;" parent="RaYTgsDw3hUf9qARrpj0-57" source="RaYTgsDw3hUf9qARrpj0-2" edge="1">
          <mxGeometry width="50" height="50" relative="1" as="geometry">
            <mxPoint x="82.5" y="72" as="sourcePoint" />
            <mxPoint x="110.00000000000001" y="32" as="targetPoint" />
          </mxGeometry>
        </mxCell>
        <mxCell id="RaYTgsDw3hUf9qARrpj0-58" value="" style="endArrow=classic;html=1;rounded=0;endSize=3;" parent="1" edge="1">
          <mxGeometry width="50" height="50" relative="1" as="geometry">
            <mxPoint x="257" y="75" as="sourcePoint" />
            <mxPoint x="297" y="75" as="targetPoint" />
          </mxGeometry>
        </mxCell>
        <mxCell id="RaYTgsDw3hUf9qARrpj0-59" value="" style="endArrow=classic;html=1;rounded=0;endSize=3;" parent="1" edge="1">
          <mxGeometry width="50" height="50" relative="1" as="geometry">
            <mxPoint x="257" y="101" as="sourcePoint" />
            <mxPoint x="297" y="101" as="targetPoint" />
          </mxGeometry>
        </mxCell>
        <mxCell id="RaYTgsDw3hUf9qARrpj0-62" value="&lt;font style=&quot;font-size: 9px;&quot;&gt;f(0.6·x&lt;sub&gt;1&lt;/sub&gt;+0.7·x&lt;sub&gt;2&amp;nbsp;&lt;/sub&gt;-1) &amp;gt; 0 = 1&lt;/font&gt;" style="text;html=1;strokeColor=none;fillColor=none;align=center;verticalAlign=middle;whiteSpace=wrap;rounded=0;container=0;" parent="1" vertex="1">
          <mxGeometry x="300" y="70" width="110" height="10" as="geometry" />
        </mxCell>
        <mxCell id="RaYTgsDw3hUf9qARrpj0-63" value="&lt;font style=&quot;font-size: 9px;&quot;&gt;f(0.6·x&lt;sub&gt;1&lt;/sub&gt;+0.7·x&lt;sub&gt;2&amp;nbsp;&lt;/sub&gt;-1) &amp;lt; 0 = 0&lt;/font&gt;" style="text;html=1;strokeColor=none;fillColor=none;align=center;verticalAlign=middle;whiteSpace=wrap;rounded=0;container=0;" parent="1" vertex="1">
          <mxGeometry x="300" y="96" width="110" height="10" as="geometry" />
        </mxCell>
        <mxCell id="RaYTgsDw3hUf9qARrpj0-34" value="&lt;font style=&quot;font-size: 8px;&quot;&gt;(1,1)&lt;/font&gt;" style="text;html=1;strokeColor=none;fillColor=none;align=center;verticalAlign=middle;whiteSpace=wrap;rounded=0;container=0;" parent="1" vertex="1">
          <mxGeometry x="271" y="52.21000000000001" width="20" height="10" as="geometry" />
        </mxCell>
        <mxCell id="RaYTgsDw3hUf9qARrpj0-35" value="&lt;font style=&quot;font-size: 8px;&quot;&gt;(0,1)&lt;/font&gt;" style="text;html=1;strokeColor=none;fillColor=none;align=center;verticalAlign=middle;whiteSpace=wrap;rounded=0;container=0;" parent="1" vertex="1">
          <mxGeometry x="191" y="52.21000000000001" width="20" height="10" as="geometry" />
        </mxCell>
        <mxCell id="RaYTgsDw3hUf9qARrpj0-36" value="&lt;font style=&quot;font-size: 8px;&quot;&gt;(0,0)&lt;/font&gt;" style="text;html=1;strokeColor=none;fillColor=none;align=center;verticalAlign=middle;whiteSpace=wrap;rounded=0;container=0;" parent="1" vertex="1">
          <mxGeometry x="191" y="101" width="20" height="10" as="geometry" />
        </mxCell>
        <mxCell id="RaYTgsDw3hUf9qARrpj0-50" value="&lt;font style=&quot;font-size: 8px;&quot;&gt;(1,0)&lt;/font&gt;" style="text;html=1;strokeColor=none;fillColor=none;align=center;verticalAlign=middle;whiteSpace=wrap;rounded=0;container=0;" parent="1" vertex="1">
          <mxGeometry x="270" y="102" width="20" height="10" as="geometry" />
        </mxCell>
        <mxCell id="RaYTgsDw3hUf9qARrpj0-54" value="" style="ellipse;whiteSpace=wrap;html=1;aspect=fixed;strokeColor=#EA6B66;fillColor=#EA6B66;container=0;" parent="1" vertex="1">
          <mxGeometry x="212.25" y="113" width="4" height="4" as="geometry" />
        </mxCell>
        <mxCell id="RaYTgsDw3hUf9qARrpj0-55" value="" style="ellipse;whiteSpace=wrap;html=1;aspect=fixed;strokeColor=#EA6B66;fillColor=#EA6B66;container=0;" parent="1" vertex="1">
          <mxGeometry x="264" y="113" width="4" height="4" as="geometry" />
        </mxCell>
        <mxCell id="RaYTgsDw3hUf9qARrpj0-56" value="" style="ellipse;whiteSpace=wrap;html=1;aspect=fixed;strokeColor=#7EA6E0;fillColor=#7EA6E0;container=0;" parent="1" vertex="1">
          <mxGeometry x="264" y="60.21000000000001" width="4" height="4" as="geometry" />
        </mxCell>
        <mxCell id="RaYTgsDw3hUf9qARrpj0-60" value="&lt;font style=&quot;font-size: 8px;&quot;&gt;x2&lt;/font&gt;" style="text;html=1;strokeColor=none;fillColor=none;align=center;verticalAlign=middle;whiteSpace=wrap;rounded=0;container=0;" parent="1" vertex="1">
          <mxGeometry x="204.25" y="36.63000000000001" width="20" height="10" as="geometry" />
        </mxCell>
        <mxCell id="RaYTgsDw3hUf9qARrpj0-61" value="&lt;font style=&quot;font-size: 8px;&quot;&gt;x1&lt;/font&gt;" style="text;html=1;strokeColor=none;fillColor=none;align=center;verticalAlign=middle;whiteSpace=wrap;rounded=0;container=0;" parent="1" vertex="1">
          <mxGeometry x="270" y="113.00000000000001" width="20" height="10" as="geometry" />
        </mxCell>
        <mxCell id="u-siVFoRlAezzdwyugNW-2" value="" style="endArrow=none;html=1;rounded=0;exitX=1;exitY=1;exitDx=0;exitDy=0;strokeColor=#FF3333;" edge="1" parent="1" source="u-siVFoRlAezzdwyugNW-1">
          <mxGeometry width="50" height="50" relative="1" as="geometry">
            <mxPoint x="294.25" y="96.63" as="sourcePoint" />
            <mxPoint x="232" y="54" as="targetPoint" />
          </mxGeometry>
        </mxCell>
      </root>
    </mxGraphModel>
  </diagram>
</mxfile>
