/*
 * TITLE: Algorithms
 * SUBTITLE: Practical 2
 * AUTHOR 1: Raúl Mouzo Quiza LOGIN 1: raul.mouzo@udc.es
 * AUTHOR 2: Clara Valle Gómez LOGIN 2: clara.valle@udc.es
 * GROUP: 2.2
 * DATE: 21/10/2022
 */

1. Introducción:
  Los datos que se muestran a continuación son resultado de un estudio empírico de complejidad computacional, en el cual, se realizaron pruebas para comprobar la complejidad del algoritmo de inserción y ordenación rápida. Se realizaron una serie de pruebas en las cuales se hicieron mediciones de tiempo con el fin de comprobar el funcionamiento y el rendimiento de estos.
  Se utilizaron diferentes vectores ordenados de forma aleatoria, ascendente y descendente para evaluar el mejor caso, el peor caso y el caso medio, además en el caso de ordenación rápida se valoran estas mismas entradas para los umbrales 1, 10 y 100.

  Cuando la medición de la ordenación de una serie de elementos da menor a 500 μs, se repite esa operación k veces hasta conseguir un tiempo mayor a este, en este caso se pone un *.


2. Unidades de tiempo:
  Todos los tiempos del estudio están en microsegundos.


3. Especificaciones de la máquina usada en las pruebas:
  Modelo: 				MacBook Pro (15-inch, 2017)
  CPU: 					2,9 GHz Intel Core i7 de 4 núcleos
  GPU: 					Intel HD Graphics 630 1536 MB
  Memoria principal: 			16 GB 2133 MHz LPDDR3
  Sistema operativo: 			Mac OS Monterrey 12.5.1
  Versión del firmware del sistema:	451.140.1.0.0


4. Tablas de datos Inserción:

Ordenación por inserción con inicialización aleatoria

--- ale              n |           t(n) |      t(n)/f(n) |      t(n)/g(n) |      t(n)/h(n) |
-------------------------------------------------------------------------------------------+
(*)                500 |        200.900 |       0.002785 |       0.000804 |      0.0002319 |
-------------------------------------------------------------------------------------------+
                  1000 |        758.000 |       0.003018 |       0.000758 |      0.0001904 |
-------------------------------------------------------------------------------------------+
                  2000 |       3127.000 |       0.003575 |       0.000782 |      0.0001709 |
-------------------------------------------------------------------------------------------+
                  4000 |      12210.000 |       0.004009 |       0.000763 |      0.0001453 |
-------------------------------------------------------------------------------------------+
                  8000 |      49033.000 |       0.004623 |       0.000766 |      0.0001270 |
-------------------------------------------------------------------------------------------+
                 16000 |     198020.000 |       0.005362 |       0.000774 |      0.0001116 |
-------------------------------------------------------------------------------------------+
                 32000 |     781469.000 |       0.006076 |       0.000763 |      0.0000958 |
-------------------------------------------------------------------------------------------+
                                                            cte = 0.00076
*: tiempo promedio (en μs) de k = 10 ejecuciones del algoritmo

f(n): cota subestimada  = n^1.8
g(n): cota ajustada = n^2
h(n): cota sobrestimada = n^2.2

Ordenación por inserción con inicialización descendente

--- des              n |           t(n) |      t(n)/f(n) |      t(n)/g(n) |      t(n)/h(n) |
-------------------------------------------------------------------------------------------+
(*)                500 |        387.000 |       0.005365 |       0.001548 |      0.0004467 |
-------------------------------------------------------------------------------------------+
                  1000 |       1536.000 |       0.006115 |       0.001536 |      0.0003858 |
-------------------------------------------------------------------------------------------+
                  2000 |       6124.000 |       0.007001 |       0.001531 |      0.0003348 |
-------------------------------------------------------------------------------------------+
                  4000 |      24559.000 |       0.008063 |       0.001535 |      0.0002922 |
-------------------------------------------------------------------------------------------+
                  8000 |      98930.000 |       0.009328 |       0.001546 |      0.0002562 |
-------------------------------------------------------------------------------------------+
                 16000 |     392478.000 |       0.010627 |       0.001533 |      0.0002212 |
-------------------------------------------------------------------------------------------+
                 32000 |    1571229.000 |       0.012217 |       0.001534 |      0.0001927 |
-------------------------------------------------------------------------------------------+
                                                             cte = 0.0015
*: tiempo promedio (en μs) de k = 10 ejecuciones del algoritmo

f(n): cota subestimada  = n^1.8
g(n): cota ajustada = n^2
h(n): cota sobrestimada = n^2.2


Ordenación por inserción con inicialización ascendente

--- asc              n |           t(n) |      t(n)/f(n) |      t(n)/g(n) |      t(n)/h(n) |
-------------------------------------------------------------------------------------------+
(*)                500 |          2.160 |       0.014972 |       0.004320 |      0.0012465 |
-------------------------------------------------------------------------------------------+
(*)               1000 |          4.306 |       0.017142 |       0.004306 |      0.0010816 |
-------------------------------------------------------------------------------------------+
(*)               2000 |          8.516 |       0.019472 |       0.004258 |      0.0009311 |
-------------------------------------------------------------------------------------------+
(*)               4000 |         17.310 |       0.022733 |       0.004327 |      0.0008238 |
-------------------------------------------------------------------------------------------+
(*)               8000 |         34.832 |       0.026273 |       0.004354 |      0.0007216 |
-------------------------------------------------------------------------------------------+
(*)              16000 |         70.383 |       0.030491 |       0.004399 |      0.0006346 |
-------------------------------------------------------------------------------------------+
(*)              32000 |        140.294 |       0.034908 |       0.004384 |      0.0005506 |
-------------------------------------------------------------------------------------------+
                                                             cte = 0.0043
*: tiempo promedio (en μs) de k = 1000 ejecuciones del algoritmo

f(n): cota subestimada  = n^0.8
g(n): cota ajustada = n
h(n): cota sobrestimada = n^1.2


4. Tablas de datos ordenación rápida: -------------------------------------------------------------

UMBRAL 1:
Ordenación rápida con inicialización aleatoria

--- ale              n |           t(n) |      t(n)/f(n) |      t(n)/g(n) |      t(n)/h(n) |
-------------------------------------------------------------------------------------------+
(*)                500 |         56.130 |       0.073127 |       0.021100 |      0.0060882 |
-------------------------------------------------------------------------------------------+
(*)               1000 |        123.290 |       0.084448 |       0.021212 |      0.0053283 |
-------------------------------------------------------------------------------------------+
(*)               2000 |        265.170 |       0.096463 |       0.021094 |      0.0046126 |
-------------------------------------------------------------------------------------------+
                  4000 |        588.000 |       0.114555 |       0.021807 |      0.0041514 |
-------------------------------------------------------------------------------------------+
                  8000 |       1210.000 |       0.127135 |       0.021069 |      0.0034916 |
-------------------------------------------------------------------------------------------+
                 16000 |       2571.000 |       0.146561 |       0.021144 |      0.0030505 |
-------------------------------------------------------------------------------------------+
                 32000 |       5478.000 |       0.170297 |       0.021388 |      0.0026862 |
-------------------------------------------------------------------------------------------+
                                                              cte = 0.021
*: tiempo promedio (en μs) de k = 100 ejecuciones del algoritmo

f(n): cota subestimada  = (n^0.775)*log(n)
g(n): cota ajustada = (n^0.975)*log(n)
h(n): cota sobrestimada = (n^1.175)*log(n)


Ordenación rápida con inicialización ascendente

--- asc              n |           t(n) |      t(n)/f(n) |      t(n)/g(n) |      t(n)/h(n) |
-------------------------------------------------------------------------------------------+
(*)                500 |         31.480 |       0.141231 |       0.040751 |      0.0117583 |
-------------------------------------------------------------------------------------------+
(*)               1000 |         65.840 |       0.161618 |       0.040597 |      0.0101974 |
-------------------------------------------------------------------------------------------+
(*)               2000 |        138.320 |       0.185776 |       0.040624 |      0.0088834 |
-------------------------------------------------------------------------------------------+
(*)               4000 |        291.180 |       0.213978 |       0.040734 |      0.0077543 |
-------------------------------------------------------------------------------------------+
                  8000 |        594.000 |       0.238835 |       0.039580 |      0.0065594 |
-------------------------------------------------------------------------------------------+
                 16000 |       1264.000 |       0.278075 |       0.040118 |      0.0057878 |
-------------------------------------------------------------------------------------------+
                 32000 |       2642.000 |       0.318018 |       0.039941 |      0.0050164 |
-------------------------------------------------------------------------------------------+
                                                              cte = 0.040
*: tiempo promedio (en μs) de k = 100 ejecuciones del algoritmo

f(n): cota subestimada  = n^0.87
g(n): cota ajustada = n^1.07
h(n): cota sobrestimada = n^1.27

Ordenación rápida con inicialización descendente

--- des              n |           t(n) |      t(n)/f(n) |      t(n)/g(n) |      t(n)/h(n) |
-------------------------------------------------------------------------------------------+
(*)                500 |         32.040 |       0.152960 |       0.044135 |      0.0127347 |
-------------------------------------------------------------------------------------------+
(*)               1000 |         68.150 |       0.179253 |       0.045026 |      0.0113101 |
-------------------------------------------------------------------------------------------+
(*)               2000 |        143.090 |       0.207359 |       0.045344 |      0.0099154 |
-------------------------------------------------------------------------------------------+
(*)               4000 |        297.250 |       0.237329 |       0.045179 |      0.0086006 |
-------------------------------------------------------------------------------------------+
                  8000 |        630.000 |       0.277130 |       0.045927 |      0.0076111 |
-------------------------------------------------------------------------------------------+
                 16000 |       1293.000 |       0.313369 |       0.045210 |      0.0065224 |
-------------------------------------------------------------------------------------------+
                 32000 |       2722.000 |       0.363462 |       0.045649 |      0.0057332 |
-------------------------------------------------------------------------------------------+
                                                              cte = 0.045
*: tiempo promedio (en μs) de k = 100 ejecuciones del algoritmo

f(n): cota subestimada  =n^0.86
g(n): cota ajustada =n^1.06
h(n): cota sobrestimada =n^1.26


UMBRAL 10:
Ordenación rápida con inicialización aleatoria

--- ale              n |           t(n) |      t(n)/f(n) |      t(n)/g(n) |      t(n)/h(n) |
-------------------------------------------------------------------------------------------+
(*)                500 |         47.180 |       0.156101 |       0.045041 |      0.0129962 |
-------------------------------------------------------------------------------------------+
(*)               1000 |        105.710 |       0.184976 |       0.046464 |      0.0116712 |
-------------------------------------------------------------------------------------------+
(*)               2000 |        230.410 |       0.213233 |       0.046628 |      0.0101963 |
-------------------------------------------------------------------------------------------+
(*)               4000 |        496.510 |       0.243016 |       0.046262 |      0.0088067 |
-------------------------------------------------------------------------------------------+
                  8000 |       1088.000 |       0.281637 |       0.046674 |      0.0077349 |
-------------------------------------------------------------------------------------------+
                 16000 |       2284.000 |       0.312687 |       0.045111 |      0.0065082 |
-------------------------------------------------------------------------------------------+
                 32000 |       5032.000 |       0.364341 |       0.045759 |      0.0057471 |
-------------------------------------------------------------------------------------------+
                                                              cte = 0.046
*: tiempo promedio (en μs) de k = 100 ejecuciones del algoritmo

f(n): cota subestimada  = n^0.919
g(n): cota ajustada = n^1.119
h(n): cota sobrestimada = n^1.319


Ordenación rápida con inicialización ascendente

--- asc              n |           t(n) |      t(n)/f(n) |      t(n)/g(n) |      t(n)/h(n) |
-------------------------------------------------------------------------------------------+
(*)                500 |         17.560 |       0.065381 |       0.018865 |      0.0054433 |
-------------------------------------------------------------------------------------------+
(*)               1000 |         38.060 |       0.075940 |       0.019075 |      0.0047915 |
-------------------------------------------------------------------------------------------+
(*)               2000 |         84.420 |       0.090265 |       0.019738 |      0.0043162 |
-------------------------------------------------------------------------------------------+
(*)               4000 |        179.910 |       0.103086 |       0.019624 |      0.0037357 |
-------------------------------------------------------------------------------------------+
(*)               8000 |        383.020 |       0.117609 |       0.019490 |      0.0032300 |
-------------------------------------------------------------------------------------------+
                 16000 |        834.000 |       0.137233 |       0.019799 |      0.0028563 |
-------------------------------------------------------------------------------------------+
                 32000 |       1717.000 |       0.151403 |       0.019015 |      0.0023882 |
-------------------------------------------------------------------------------------------+
                                                              cte = 0.019
*: tiempo promedio (en μs) de k = 100 ejecuciones del algoritmo

f(n): cota subestimada  = n^0.9
g(n): cota ajustada = n^1.1
h(n): cota sobrestimada = n^1.3


Ordenación rápida con inicialización descendente

--- des              n |           t(n) |      t(n)/f(n) |      t(n)/g(n) |      t(n)/h(n) |
-------------------------------------------------------------------------------------------+
(*)                500 |         21.180 |       0.078859 |       0.022754 |      0.0065655 |
-------------------------------------------------------------------------------------------+
(*)               1000 |         45.010 |       0.089807 |       0.022558 |      0.0056664 |
-------------------------------------------------------------------------------------------+
(*)               2000 |         97.870 |       0.104646 |       0.022883 |      0.0050039 |
-------------------------------------------------------------------------------------------+
(*)               4000 |        206.890 |       0.118546 |       0.022567 |      0.0042960 |
-------------------------------------------------------------------------------------------+
(*)               8000 |        444.420 |       0.136462 |       0.022615 |      0.0037478 |
-------------------------------------------------------------------------------------------+
                 16000 |        894.000 |       0.147106 |       0.021223 |      0.0030618 |
-------------------------------------------------------------------------------------------+
                 32000 |       1830.000 |       0.161368 |       0.020967 |      0.0025454 |
-------------------------------------------------------------------------------------------+
                                                              cte = 0.022
*: tiempo promedio (en μs) de k = 100 ejecuciones del algoritmo

f(n): cota subestimada  = n^0.9
g(n): cota ajustada = n^1.1
h(n): cota sobrestimada = n^1.3


UMBRAL 100:
Ordenación rápida con inicialización aleatoria

--- ale              n |           t(n) |      t(n)/f(n) |      t(n)/g(n) |      t(n)/h(n) |
-------------------------------------------------------------------------------------------+
(*)                500 |         71.050 |       0.226473 |       0.066164 |      0.0188551 |
-------------------------------------------------------------------------------------------+
(*)               1000 |        156.190 |       0.262212 |       0.066781 |      0.0165445 |
-------------------------------------------------------------------------------------------+
(*)               2000 |        339.920 |       0.300555 |       0.066730 |      0.0143718 |
-------------------------------------------------------------------------------------------+
                  4000 |        741.000 |       0.345074 |       0.066789 |      0.0125051 |
-------------------------------------------------------------------------------------------+
                  8000 |       1568.000 |       0.384581 |       0.064890 |      0.0105621 |
-------------------------------------------------------------------------------------------+
                 16000 |       3466.000 |       0.447731 |       0.065857 |      0.0093190 |
-------------------------------------------------------------------------------------------+
                 32000 |       7149.000 |       0.486387 |       0.062368 |      0.0076722 |
-------------------------------------------------------------------------------------------+
                                                              cte = 0.066
*: tiempo promedio (en μs) de k = 100 ejecuciones del algoritmo

f(n): cota subestimada  = n^0.925
g(n): cota ajustada = n^1.123
h(n): cota sobrestimada = n^1.325


Ordenación rápida con inicialización ascendente

--- asc              n |           t(n) |      t(n)/f(n) |      t(n)/g(n) |      t(n)/h(n) |
-------------------------------------------------------------------------------------------+
(*)                500 |          7.600 |       0.026592 |       0.003640 |      0.0023559 |
-------------------------------------------------------------------------------------------+
(*)               1000 |         18.130 |       0.033760 |       0.003702 |      0.0022824 |
-------------------------------------------------------------------------------------------+
(*)               2000 |         42.950 |       0.042562 |       0.003738 |      0.0021960 |
-------------------------------------------------------------------------------------------+
(*)               4000 |        100.350 |       0.052923 |       0.003724 |      0.0020837 |
-------------------------------------------------------------------------------------------+
(*)               8000 |        223.020 |       0.062594 |       0.003528 |      0.0018807 |
-------------------------------------------------------------------------------------------+
(*)              16000 |        496.430 |       0.074150 |       0.003348 |      0.0017002 |
-------------------------------------------------------------------------------------------+
                 32000 |       1212.000 |       0.096342 |       0.003485 |      0.0016858 |
-------------------------------------------------------------------------------------------+
                                                             cte = 0.0036
*: tiempo promedio (en μs) de k = 100 ejecuciones del algoritmo

f(n): cota subestimada  = n^0.91
g(n): cota ajustada = n^1.23
h(n): cota sobrestimada = n^1.31


Ordenación rápida con inicialización descendente

--- des              n |           t(n) |      t(n)/f(n) |      t(n)/g(n) |      t(n)/h(n) |
-------------------------------------------------------------------------------------------+
(*)                500 |         12.940 |       0.045276 |       0.013064 |      0.0037695 |
-------------------------------------------------------------------------------------------+
(*)               1000 |         27.360 |       0.050947 |       0.012797 |      0.0032145 |
-------------------------------------------------------------------------------------------+
(*)               2000 |         57.390 |       0.056872 |       0.012436 |      0.0027195 |
-------------------------------------------------------------------------------------------+
(*)               4000 |        121.610 |       0.064135 |       0.012209 |      0.0023242 |
-------------------------------------------------------------------------------------------+
(*)               8000 |        265.460 |       0.074505 |       0.012347 |      0.0020462 |
-------------------------------------------------------------------------------------------+
                 16000 |        574.000 |       0.085736 |       0.012369 |      0.0017845 |
-------------------------------------------------------------------------------------------+
                 32000 |       1235.000 |       0.098170 |       0.012330 |      0.0015485 |
-------------------------------------------------------------------------------------------+
                                                              cte = 0.012
*: tiempo promedio (en μs) de k = 100 ejecuciones del algoritmo

f(n): cota subestimada  = n^0.91
g(n): cota ajustada = n^1.11
h(n): cota sobrestimada = n^1.31


5. Conclusiones:

  En ordenación por inserción podemos confirmar que las cotas coinciden con lo expuesto en teoría, de forma que el caso más rápido es el del vector ordenado (O(n)), el más lento el del vector inversamente ordenado (O(n^2)) y el medio el del vector aleatorio(O(n^2)).

  Dentro de la ordenación rápida, como se puede ver en las tablas, podemos concluir que el umbral 10 es más rápido para casos aleatorios ya que se trata de un caso intermedio entre el uso exclusivo de ordenación rápida y el uso mayoritario de ordenación por inserción. Por otro lado, el más rápido para los otros estados iniciales es el umbral 100 donde el vector os esta ordenado o inversamente ordenado.

  Dadas las pruebas realizadas podemos comprobar, que dependiendo de la situación inicial y usando diferentes umbrales, con un pivote aleatorio, la complejidad resultante es diferente a la teórica O(nlog(n)) que sólo tiene en cuenta la elección de pivote a la hora de calcular la complejidad. En nuestro caso al tener tres diferentes situaciones iniciales y umbrales, la complejidad resultante es diferente a la teórica.

  En general determinamos que la ordenación por inserción es mucho menos eficiente que la ordenación rápida en todos los casos excepto cuando el vector ya está ordenado.


6. Complicaciones:
  Más allá de la complejidad de la implementación del ejercicio en c, lo más complejo fue encontrar las diferentes cotas para todos los umbrales y situaciones iniciales.
