<mxfile host="Electron" modified="2023-04-23T18:46:21.753Z" agent="Mozilla/5.0 (Macintosh; Intel Mac OS X 10_15_7) AppleWebKit/537.36 (KHTML, like Gecko) draw.io/21.1.2 Chrome/106.0.5249.199 Electron/21.4.3 Safari/537.36" etag="eeFQT1SlimBnBNXrNyi0" version="21.1.2" type="device">
  <diagram name="Página-1" id="-zOlD9OF7HmrnQ9FZsu-">
    <mxGraphModel dx="302" dy="209" grid="1" gridSize="10" guides="1" tooltips="1" connect="1" arrows="1" fold="1" page="1" pageScale="1" pageWidth="827" pageHeight="1169" math="0" shadow="0">
      <root>
        <mxCell id="0" />
        <mxCell id="1" parent="0" />
        <mxCell id="vWd0CxK433W5j3Qa63HM-1" value="" style="group" vertex="1" connectable="0" parent="1">
          <mxGeometry x="80" y="60" width="110" height="60" as="geometry" />
        </mxCell>
        <mxCell id="MLdMc-f0y2w2QIY8822r-2" value="&lt;font style=&quot;font-size: 11px;&quot;&gt;A&lt;/font&gt;" style="rounded=0;whiteSpace=wrap;html=1;" parent="vWd0CxK433W5j3Qa63HM-1" vertex="1">
          <mxGeometry width="40.52631578947368" height="15" as="geometry" />
        </mxCell>
        <mxCell id="MLdMc-f0y2w2QIY8822r-3" value="&lt;font style=&quot;font-size: 11px;&quot;&gt;D&lt;/font&gt;" style="rounded=0;whiteSpace=wrap;html=1;" parent="vWd0CxK433W5j3Qa63HM-1" vertex="1">
          <mxGeometry x="23.157894736842106" y="15" width="40.52631578947368" height="15" as="geometry" />
        </mxCell>
        <mxCell id="MLdMc-f0y2w2QIY8822r-4" value="&lt;span style=&quot;font-size: 11px;&quot;&gt;P&lt;/span&gt;" style="rounded=0;whiteSpace=wrap;html=1;" parent="vWd0CxK433W5j3Qa63HM-1" vertex="1">
          <mxGeometry x="46.31578947368421" y="30" width="40.52631578947368" height="15" as="geometry" />
        </mxCell>
        <mxCell id="MLdMc-f0y2w2QIY8822r-5" value="&lt;font style=&quot;font-size: 11px;&quot;&gt;P&lt;/font&gt;" style="rounded=0;whiteSpace=wrap;html=1;" parent="vWd0CxK433W5j3Qa63HM-1" vertex="1">
          <mxGeometry x="69.47368421052632" y="45" width="40.52631578947368" height="15" as="geometry" />
        </mxCell>
        <mxCell id="MLdMc-f0y2w2QIY8822r-9" value="" style="endArrow=classic;html=1;rounded=1;exitX=0.25;exitY=1;exitDx=0;exitDy=0;entryX=0;entryY=0.5;entryDx=0;entryDy=0;endSize=4;" parent="vWd0CxK433W5j3Qa63HM-1" edge="1">
          <mxGeometry width="50" height="50" relative="1" as="geometry">
            <mxPoint x="10.421052631578947" y="15" as="sourcePoint" />
            <mxPoint x="23.157894736842106" y="22.5" as="targetPoint" />
            <Array as="points">
              <mxPoint x="11.578947368421053" y="22.5" />
            </Array>
          </mxGeometry>
        </mxCell>
        <mxCell id="MLdMc-f0y2w2QIY8822r-10" value="" style="endArrow=classic;html=1;rounded=1;exitX=0.25;exitY=1;exitDx=0;exitDy=0;entryX=0;entryY=0.5;entryDx=0;entryDy=0;endSize=4;" parent="vWd0CxK433W5j3Qa63HM-1" edge="1">
          <mxGeometry width="50" height="50" relative="1" as="geometry">
            <mxPoint x="33.57894736842105" y="30" as="sourcePoint" />
            <mxPoint x="46.31578947368421" y="37.5" as="targetPoint" />
            <Array as="points">
              <mxPoint x="34.73684210526316" y="37.5" />
            </Array>
          </mxGeometry>
        </mxCell>
        <mxCell id="MLdMc-f0y2w2QIY8822r-11" value="" style="endArrow=classic;html=1;rounded=1;exitX=0.25;exitY=1;exitDx=0;exitDy=0;entryX=0;entryY=0.5;entryDx=0;entryDy=0;endSize=4;" parent="vWd0CxK433W5j3Qa63HM-1" edge="1">
          <mxGeometry width="50" height="50" relative="1" as="geometry">
            <mxPoint x="56.73684210526316" y="45" as="sourcePoint" />
            <mxPoint x="69.47368421052632" y="52.5" as="targetPoint" />
            <Array as="points">
              <mxPoint x="57.89473684210526" y="52.5" />
            </Array>
          </mxGeometry>
        </mxCell>
        <mxCell id="vWd0CxK433W5j3Qa63HM-2" value="" style="group" vertex="1" connectable="0" parent="1">
          <mxGeometry x="230" y="60" width="110" height="60" as="geometry" />
        </mxCell>
        <mxCell id="vWd0CxK433W5j3Qa63HM-3" value="&lt;font style=&quot;font-size: 11px;&quot;&gt;A&lt;/font&gt;" style="rounded=0;whiteSpace=wrap;html=1;" vertex="1" parent="vWd0CxK433W5j3Qa63HM-2">
          <mxGeometry width="40.52631578947368" height="15" as="geometry" />
        </mxCell>
        <mxCell id="vWd0CxK433W5j3Qa63HM-4" value="&lt;font style=&quot;font-size: 11px;&quot;&gt;D&lt;/font&gt;" style="rounded=0;whiteSpace=wrap;html=1;" vertex="1" parent="vWd0CxK433W5j3Qa63HM-2">
          <mxGeometry x="23.157894736842106" y="15" width="40.52631578947368" height="15" as="geometry" />
        </mxCell>
        <mxCell id="vWd0CxK433W5j3Qa63HM-5" value="&lt;span style=&quot;font-size: 11px;&quot;&gt;P&lt;/span&gt;" style="rounded=0;whiteSpace=wrap;html=1;" vertex="1" parent="vWd0CxK433W5j3Qa63HM-2">
          <mxGeometry x="46.31578947368421" y="30" width="40.52631578947368" height="15" as="geometry" />
        </mxCell>
        <mxCell id="vWd0CxK433W5j3Qa63HM-6" value="&lt;font style=&quot;font-size: 11px;&quot;&gt;P&lt;/font&gt;" style="rounded=0;whiteSpace=wrap;html=1;" vertex="1" parent="vWd0CxK433W5j3Qa63HM-2">
          <mxGeometry x="69.47368421052632" y="45" width="40.52631578947368" height="15" as="geometry" />
        </mxCell>
        <mxCell id="vWd0CxK433W5j3Qa63HM-7" value="" style="endArrow=classic;html=1;rounded=1;exitX=0.25;exitY=1;exitDx=0;exitDy=0;entryX=0;entryY=0.5;entryDx=0;entryDy=0;endSize=4;" edge="1" parent="vWd0CxK433W5j3Qa63HM-2">
          <mxGeometry width="50" height="50" relative="1" as="geometry">
            <mxPoint x="10.421052631578947" y="15" as="sourcePoint" />
            <mxPoint x="23.157894736842106" y="22.5" as="targetPoint" />
            <Array as="points">
              <mxPoint x="11.578947368421053" y="22.5" />
            </Array>
          </mxGeometry>
        </mxCell>
        <mxCell id="vWd0CxK433W5j3Qa63HM-8" value="" style="endArrow=classic;html=1;rounded=1;exitX=0.25;exitY=1;exitDx=0;exitDy=0;entryX=0;entryY=0.5;entryDx=0;entryDy=0;endSize=4;" edge="1" parent="vWd0CxK433W5j3Qa63HM-2">
          <mxGeometry width="50" height="50" relative="1" as="geometry">
            <mxPoint x="33.57894736842105" y="30" as="sourcePoint" />
            <mxPoint x="46.31578947368421" y="37.5" as="targetPoint" />
            <Array as="points">
              <mxPoint x="34.73684210526316" y="37.5" />
            </Array>
          </mxGeometry>
        </mxCell>
        <mxCell id="vWd0CxK433W5j3Qa63HM-9" value="" style="endArrow=classic;html=1;rounded=1;exitX=0.25;exitY=1;exitDx=0;exitDy=0;entryX=0;entryY=0.5;entryDx=0;entryDy=0;endSize=4;" edge="1" parent="vWd0CxK433W5j3Qa63HM-2">
          <mxGeometry width="50" height="50" relative="1" as="geometry">
            <mxPoint x="56.73684210526316" y="45" as="sourcePoint" />
            <mxPoint x="69.47368421052632" y="52.5" as="targetPoint" />
            <Array as="points">
              <mxPoint x="57.89473684210526" y="52.5" />
            </Array>
          </mxGeometry>
        </mxCell>
        <mxCell id="vWd0CxK433W5j3Qa63HM-10" value="" style="whiteSpace=wrap;html=1;fillColor=none;" vertex="1" parent="1">
          <mxGeometry x="70" y="50" width="130" height="80" as="geometry" />
        </mxCell>
        <mxCell id="vWd0CxK433W5j3Qa63HM-11" value="" style="whiteSpace=wrap;html=1;fillColor=none;" vertex="1" parent="1">
          <mxGeometry x="220" y="50" width="130" height="80" as="geometry" />
        </mxCell>
        <mxCell id="vWd0CxK433W5j3Qa63HM-12" value="1" style="rounded=0;whiteSpace=wrap;html=1;" vertex="1" parent="1">
          <mxGeometry x="105" y="160" width="20" height="20" as="geometry" />
        </mxCell>
        <mxCell id="vWd0CxK433W5j3Qa63HM-13" value="" style="rounded=0;whiteSpace=wrap;html=1;" vertex="1" parent="1">
          <mxGeometry x="125" y="160" width="20" height="20" as="geometry" />
        </mxCell>
        <mxCell id="vWd0CxK433W5j3Qa63HM-14" value="" style="rounded=0;whiteSpace=wrap;html=1;" vertex="1" parent="1">
          <mxGeometry x="145" y="160" width="20" height="20" as="geometry" />
        </mxCell>
        <mxCell id="vWd0CxK433W5j3Qa63HM-15" value="1" style="rounded=0;whiteSpace=wrap;html=1;" vertex="1" parent="1">
          <mxGeometry x="255" y="160" width="20" height="20" as="geometry" />
        </mxCell>
        <mxCell id="vWd0CxK433W5j3Qa63HM-16" value="2" style="rounded=0;whiteSpace=wrap;html=1;" vertex="1" parent="1">
          <mxGeometry x="275" y="160" width="20" height="20" as="geometry" />
        </mxCell>
        <mxCell id="vWd0CxK433W5j3Qa63HM-17" value="" style="rounded=0;whiteSpace=wrap;html=1;" vertex="1" parent="1">
          <mxGeometry x="295" y="160" width="20" height="20" as="geometry" />
        </mxCell>
        <mxCell id="vWd0CxK433W5j3Qa63HM-18" value="V1" style="text;html=1;strokeColor=none;fillColor=none;align=center;verticalAlign=middle;whiteSpace=wrap;rounded=0;" vertex="1" parent="1">
          <mxGeometry x="105" y="130" width="60" height="30" as="geometry" />
        </mxCell>
        <mxCell id="vWd0CxK433W5j3Qa63HM-19" value="V2 + funcionalidad 2" style="text;html=1;strokeColor=none;fillColor=none;align=center;verticalAlign=middle;whiteSpace=wrap;rounded=0;" vertex="1" parent="1">
          <mxGeometry x="220" y="130" width="130" height="30" as="geometry" />
        </mxCell>
        <mxCell id="vWd0CxK433W5j3Qa63HM-21" value="" style="endArrow=classic;html=1;rounded=1;exitX=1;exitY=0.5;exitDx=0;exitDy=0;endSize=3;" edge="1" parent="1" source="vWd0CxK433W5j3Qa63HM-14">
          <mxGeometry width="50" height="50" relative="1" as="geometry">
            <mxPoint x="200" y="140" as="sourcePoint" />
            <mxPoint x="235" y="75" as="targetPoint" />
            <Array as="points">
              <mxPoint x="200" y="160" />
            </Array>
          </mxGeometry>
        </mxCell>
      </root>
    </mxGraphModel>
  </diagram>
</mxfile>
